 Element ID, Contour(Failure Index),

18,5.214E-01,
19,4.900E-01,
20,4.076E-01,
21,6.097E-01,
22,6.165E-01,
62,2.507E-01,
63,2.590E-01,
64,2.534E-01,
65,2.507E-01,
66,3.850E-01,
106,2.462E-01,
107,2.762E-01,
108,2.827E-01,
109,2.754E-01,
110,2.671E-01,
150,2.468E-01,
151,2.786E-01,
152,2.751E-01,
153,2.662E-01,
154,2.431E-01,
194,2.572E-01,
195,2.867E-01,
196,2.836E-01,
197,2.660E-01,
198,2.261E-01,
238,2.504E-01,
239,2.764E-01,
240,2.751E-01,
241,2.627E-01,
242,2.201E-01,
282,2.430E-01,
283,2.607E-01,
284,2.624E-01,
285,2.517E-01,
286,2.161E-01,
326,2.411E-01,
327,2.456E-01,
328,2.472E-01,
329,2.407E-01,
330,2.125E-01,
370,2.390E-01,
371,2.361E-01,
372,2.357E-01,
373,2.301E-01,
374,2.098E-01,
414,2.367E-01,
415,2.344E-01,
416,2.313E-01,
417,2.260E-01,
418,2.077E-01,
458,2.345E-01,
459,2.326E-01,
460,2.295E-01,
461,2.243E-01,
462,2.063E-01,
502,2.323E-01,
503,2.307E-01,
504,2.276E-01,
505,2.224E-01,
506,2.051E-01,
546,2.301E-01,
547,2.286E-01,
548,2.256E-01,
549,2.204E-01,
550,2.041E-01,
590,2.279E-01,
591,2.266E-01,
592,2.236E-01,
593,2.185E-01,
594,2.030E-01,
634,2.257E-01,
635,2.245E-01,
636,2.215E-01,
637,2.165E-01,
638,2.020E-01,
678,2.236E-01,
679,2.224E-01,
680,2.195E-01,
681,2.145E-01,
682,2.009E-01,
722,2.214E-01,
723,2.203E-01,
724,2.174E-01,
725,2.125E-01,
726,1.998E-01,
766,2.193E-01,
767,2.182E-01,
768,2.153E-01,
769,2.105E-01,
770,1.987E-01,
810,2.171E-01,
811,2.161E-01,
812,2.133E-01,
813,2.084E-01,
814,1.975E-01,
854,2.150E-01,
855,2.140E-01,
856,2.112E-01,
857,2.064E-01,
858,1.964E-01,
898,2.129E-01,
899,2.119E-01,
900,2.091E-01,
901,2.044E-01,
902,1.953E-01,
942,2.107E-01,
943,2.098E-01,
944,2.070E-01,
945,2.024E-01,
946,1.942E-01,
986,2.086E-01,
987,2.077E-01,
988,2.050E-01,
989,2.004E-01,
990,1.930E-01,
1030,2.065E-01,
1031,2.056E-01,
1032,2.029E-01,
1033,1.983E-01,
1034,1.919E-01,
1074,2.044E-01,
1075,2.035E-01,
1076,2.008E-01,
1077,1.963E-01,
1078,1.908E-01,
1118,2.023E-01,
1119,2.014E-01,
1120,1.988E-01,
1121,1.947E-01,
1122,1.897E-01,
1162,2.002E-01,
1163,1.993E-01,
1164,1.967E-01,
1165,1.935E-01,
1166,1.887E-01,
1206,1.980E-01,
1207,1.971E-01,
1208,1.946E-01,
1209,1.922E-01,
1210,1.876E-01,
1250,1.959E-01,
1251,1.950E-01,
1252,1.925E-01,
1253,1.909E-01,
1254,1.865E-01,
1294,1.938E-01,
1295,1.929E-01,
1296,1.909E-01,
1297,1.897E-01,
1298,1.854E-01,
17,3.661E-01,
61,3.566E-01,
105,2.577E-01,
149,2.496E-01,
193,2.510E-01,
237,2.499E-01,
281,2.475E-01,
325,2.447E-01,
369,2.417E-01,
413,2.388E-01,
457,2.360E-01,
501,2.334E-01,
545,2.310E-01,
589,2.286E-01,
633,2.263E-01,
677,2.241E-01,
721,2.219E-01,
765,2.197E-01,
809,2.176E-01,
853,2.154E-01,
897,2.133E-01,
941,2.111E-01,
985,2.090E-01,
1029,2.069E-01,
1073,2.047E-01,
1117,2.026E-01,
1161,2.005E-01,
1205,1.984E-01,
1249,1.962E-01,
1293,1.941E-01,
23,4.052E-01,
67,3.875E-01,
111,2.955E-01,
155,2.359E-01,
199,2.095E-01,
243,1.955E-01,
287,1.916E-01,
331,1.921E-01,
375,1.942E-01,
419,1.966E-01,
463,1.984E-01,
507,1.996E-01,
551,2.000E-01,
595,2.000E-01,
639,1.997E-01,
683,1.992E-01,
727,1.986E-01,
771,1.979E-01,
815,1.972E-01,
859,1.964E-01,
903,1.956E-01,
947,1.948E-01,
991,1.940E-01,
1035,1.931E-01,
1079,1.923E-01,
1123,1.915E-01,
1167,1.906E-01,
1211,1.898E-01,
1255,1.889E-01,
1299,1.881E-01,
1338,1.917E-01,
1339,1.908E-01,
1340,1.896E-01,
1341,1.884E-01,
1342,1.843E-01,
1382,1.896E-01,
1383,1.887E-01,
1384,1.883E-01,
1385,1.871E-01,
1386,1.832E-01,
1426,1.874E-01,
1427,1.866E-01,
1428,1.870E-01,
1429,1.859E-01,
1430,1.821E-01,
1470,1.853E-01,
1471,1.845E-01,
1472,1.857E-01,
1473,1.846E-01,
1474,1.810E-01,
1514,1.832E-01,
1515,1.824E-01,
1516,1.844E-01,
1517,1.833E-01,
1518,1.800E-01,
1558,1.811E-01,
1559,1.803E-01,
1560,1.831E-01,
1561,1.821E-01,
1562,1.789E-01,
1602,1.789E-01,
1603,1.782E-01,
1604,1.818E-01,
1605,1.808E-01,
1606,1.778E-01,
1646,1.768E-01,
1647,1.765E-01,
1648,1.804E-01,
1649,1.795E-01,
1650,1.767E-01,
1690,1.747E-01,
1691,1.752E-01,
1692,1.791E-01,
1693,1.783E-01,
1694,1.756E-01,
1734,1.725E-01,
1735,1.739E-01,
1736,1.778E-01,
1737,1.770E-01,
1738,1.744E-01,
1778,1.704E-01,
1779,1.726E-01,
1780,1.765E-01,
1781,1.757E-01,
1782,1.733E-01,
1822,1.683E-01,
1823,1.712E-01,
1824,1.752E-01,
1825,1.744E-01,
1826,1.722E-01,
1866,1.662E-01,
1867,1.699E-01,
1868,1.738E-01,
1869,1.732E-01,
1870,1.711E-01,
1910,1.640E-01,
1911,1.686E-01,
1912,1.725E-01,
1913,1.719E-01,
1914,1.700E-01,
1954,1.619E-01,
1955,1.672E-01,
1956,1.712E-01,
1957,1.706E-01,
1958,1.689E-01,
1998,1.598E-01,
1999,1.659E-01,
2000,1.699E-01,
2001,1.693E-01,
2002,1.678E-01,
2042,1.576E-01,
2043,1.646E-01,
2044,1.685E-01,
2045,1.680E-01,
2046,1.666E-01,
2086,1.555E-01,
2087,1.633E-01,
2088,1.672E-01,
2089,1.667E-01,
2090,1.655E-01,
2130,1.534E-01,
2131,1.619E-01,
2132,1.659E-01,
2133,1.655E-01,
2134,1.644E-01,
2174,1.512E-01,
2175,1.606E-01,
2176,1.645E-01,
2177,1.642E-01,
2178,1.633E-01,
2218,1.491E-01,
2219,1.593E-01,
2220,1.632E-01,
2221,1.629E-01,
2222,1.622E-01,
2262,1.470E-01,
2263,1.579E-01,
2264,1.619E-01,
2265,1.616E-01,
2266,1.610E-01,
2306,1.448E-01,
2307,1.566E-01,
2308,1.605E-01,
2309,1.603E-01,
2310,1.599E-01,
2350,1.427E-01,
2351,1.553E-01,
2352,1.592E-01,
2353,1.590E-01,
2354,1.588E-01,
2394,1.406E-01,
2395,1.539E-01,
2396,1.579E-01,
2397,1.577E-01,
2398,1.577E-01,
2438,1.385E-01,
2439,1.526E-01,
2440,1.565E-01,
2441,1.564E-01,
2442,1.565E-01,
2482,1.372E-01,
2483,1.512E-01,
2484,1.552E-01,
2485,1.551E-01,
2486,1.554E-01,
2526,1.359E-01,
2527,1.499E-01,
2528,1.539E-01,
2529,1.538E-01,
2530,1.543E-01,
2570,1.346E-01,
2571,1.486E-01,
2572,1.525E-01,
2573,1.525E-01,
2574,1.531E-01,
2614,1.333E-01,
2615,1.472E-01,
2616,1.512E-01,
2617,1.512E-01,
2618,1.520E-01,
1337,1.919E-01,
1381,1.898E-01,
1425,1.877E-01,
1469,1.855E-01,
1513,1.834E-01,
1557,1.813E-01,
1601,1.791E-01,
1645,1.770E-01,
1689,1.748E-01,
1733,1.727E-01,
1777,1.706E-01,
1821,1.684E-01,
1865,1.663E-01,
1909,1.642E-01,
1953,1.620E-01,
1997,1.599E-01,
2041,1.577E-01,
2085,1.556E-01,
2129,1.535E-01,
2173,1.513E-01,
2217,1.492E-01,
2261,1.470E-01,
2305,1.449E-01,
2349,1.428E-01,
2393,1.406E-01,
2437,1.385E-01,
2481,1.363E-01,
2525,1.342E-01,
2569,1.321E-01,
2613,1.299E-01,
1343,1.872E-01,
1387,1.864E-01,
1431,1.855E-01,
1475,1.847E-01,
1519,1.838E-01,
1563,1.830E-01,
1607,1.821E-01,
1651,1.812E-01,
1695,1.803E-01,
1739,1.795E-01,
1783,1.786E-01,
1827,1.777E-01,
1871,1.768E-01,
1915,1.759E-01,
1959,1.750E-01,
2003,1.741E-01,
2047,1.733E-01,
2091,1.724E-01,
2135,1.715E-01,
2179,1.706E-01,
2223,1.697E-01,
2267,1.688E-01,
2311,1.679E-01,
2355,1.670E-01,
2399,1.661E-01,
2443,1.652E-01,
2487,1.643E-01,
2531,1.634E-01,
2575,1.625E-01,
2619,1.616E-01,
16,3.898E-01,
60,3.199E-01,
104,3.294E-01,
148,2.518E-01,
192,2.525E-01,
236,2.512E-01,
280,2.486E-01,
324,2.454E-01,
368,2.422E-01,
412,2.392E-01,
456,2.364E-01,
500,2.339E-01,
544,2.314E-01,
588,2.291E-01,
632,2.268E-01,
676,2.246E-01,
720,2.224E-01,
764,2.202E-01,
808,2.180E-01,
852,2.159E-01,
896,2.137E-01,
940,2.115E-01,
984,2.094E-01,
1028,2.073E-01,
1072,2.051E-01,
1116,2.030E-01,
1160,2.008E-01,
1204,1.987E-01,
1248,1.965E-01,
1292,1.944E-01,
1336,1.922E-01,
1380,1.901E-01,
1424,1.879E-01,
1468,1.858E-01,
1512,1.836E-01,
1556,1.815E-01,
1600,1.793E-01,
1644,1.772E-01,
1688,1.750E-01,
1732,1.729E-01,
1776,1.707E-01,
1820,1.686E-01,
1864,1.664E-01,
1908,1.643E-01,
1952,1.621E-01,
1996,1.600E-01,
2040,1.578E-01,
2084,1.557E-01,
2128,1.536E-01,
2172,1.514E-01,
2216,1.493E-01,
2260,1.471E-01,
2304,1.450E-01,
2348,1.428E-01,
2392,1.407E-01,
2436,1.385E-01,
2480,1.364E-01,
2524,1.342E-01,
2568,1.321E-01,
2612,1.299E-01,
24,2.735E-01,
25,1.707E-01,
26,8.844E-02,
68,2.789E-01,
69,1.854E-01,
70,1.098E-01,
112,2.682E-01,
113,1.961E-01,
114,1.312E-01,
156,2.277E-01,
157,1.974E-01,
158,1.491E-01,
200,2.003E-01,
201,1.855E-01,
202,1.609E-01,
244,1.878E-01,
245,1.781E-01,
246,1.647E-01,
288,1.828E-01,
289,1.764E-01,
290,1.672E-01,
332,1.832E-01,
333,1.771E-01,
334,1.690E-01,
376,1.857E-01,
377,1.790E-01,
378,1.696E-01,
420,1.884E-01,
421,1.806E-01,
422,1.698E-01,
464,1.906E-01,
465,1.818E-01,
466,1.697E-01,
508,1.920E-01,
509,1.826E-01,
510,1.695E-01,
552,1.929E-01,
553,1.830E-01,
554,1.694E-01,
596,1.934E-01,
597,1.833E-01,
598,1.694E-01,
640,1.935E-01,
641,1.835E-01,
642,1.693E-01,
684,1.934E-01,
685,1.835E-01,
686,1.693E-01,
728,1.932E-01,
729,1.834E-01,
730,1.692E-01,
772,1.929E-01,
773,1.833E-01,
774,1.691E-01,
816,1.924E-01,
817,1.830E-01,
818,1.689E-01,
860,1.920E-01,
861,1.828E-01,
862,1.687E-01,
904,1.914E-01,
905,1.824E-01,
906,1.685E-01,
948,1.909E-01,
949,1.821E-01,
950,1.683E-01,
992,1.903E-01,
993,1.817E-01,
994,1.681E-01,
1036,1.897E-01,
1037,1.813E-01,
1038,1.678E-01,
1080,1.891E-01,
1081,1.809E-01,
1082,1.676E-01,
1124,1.885E-01,
1125,1.805E-01,
1126,1.674E-01,
1168,1.879E-01,
1169,1.801E-01,
1170,1.672E-01,
1212,1.873E-01,
1213,1.797E-01,
1214,1.670E-01,
1256,1.866E-01,
1257,1.793E-01,
1258,1.668E-01,
1300,1.860E-01,
1301,1.789E-01,
1302,1.666E-01,
1344,1.854E-01,
1345,1.785E-01,
1346,1.664E-01,
1388,1.848E-01,
1389,1.781E-01,
1390,1.662E-01,
1432,1.842E-01,
1433,1.776E-01,
1434,1.660E-01,
1476,1.835E-01,
1477,1.772E-01,
1478,1.658E-01,
1520,1.829E-01,
1521,1.768E-01,
1522,1.656E-01,
1564,1.822E-01,
1565,1.764E-01,
1566,1.654E-01,
1608,1.816E-01,
1609,1.760E-01,
1610,1.652E-01,
1652,1.810E-01,
1653,1.755E-01,
1654,1.650E-01,
1696,1.803E-01,
1697,1.751E-01,
1698,1.647E-01,
1740,1.797E-01,
1741,1.747E-01,
1742,1.645E-01,
1784,1.790E-01,
1785,1.742E-01,
1786,1.643E-01,
1828,1.783E-01,
1829,1.738E-01,
1830,1.641E-01,
1872,1.777E-01,
1873,1.734E-01,
1874,1.639E-01,
1916,1.770E-01,
1917,1.729E-01,
1918,1.637E-01,
1960,1.764E-01,
1961,1.725E-01,
1962,1.634E-01,
2004,1.757E-01,
2005,1.720E-01,
2006,1.632E-01,
2048,1.750E-01,
2049,1.716E-01,
2050,1.630E-01,
2092,1.743E-01,
2093,1.711E-01,
2094,1.628E-01,
2136,1.737E-01,
2137,1.707E-01,
2138,1.625E-01,
2180,1.730E-01,
2181,1.703E-01,
2182,1.623E-01,
2224,1.723E-01,
2225,1.698E-01,
2226,1.621E-01,
2268,1.717E-01,
2269,1.694E-01,
2270,1.619E-01,
2312,1.710E-01,
2313,1.689E-01,
2314,1.616E-01,
2356,1.703E-01,
2357,1.685E-01,
2358,1.614E-01,
2400,1.696E-01,
2401,1.680E-01,
2402,1.612E-01,
2444,1.690E-01,
2445,1.676E-01,
2446,1.610E-01,
2488,1.683E-01,
2489,1.671E-01,
2490,1.607E-01,
2532,1.676E-01,
2533,1.667E-01,
2534,1.605E-01,
2576,1.669E-01,
2577,1.662E-01,
2578,1.603E-01,
2620,1.663E-01,
2621,1.658E-01,
2622,1.601E-01,
2658,1.320E-01,
2659,1.459E-01,
2660,1.498E-01,
2661,1.499E-01,
2662,1.509E-01,
2702,1.307E-01,
2703,1.446E-01,
2704,1.485E-01,
2705,1.487E-01,
2706,1.498E-01,
2746,1.294E-01,
2747,1.432E-01,
2748,1.472E-01,
2749,1.474E-01,
2750,1.486E-01,
2790,1.281E-01,
2791,1.419E-01,
2792,1.458E-01,
2793,1.461E-01,
2794,1.475E-01,
2834,1.268E-01,
2835,1.405E-01,
2836,1.445E-01,
2837,1.448E-01,
2838,1.464E-01,
2878,1.255E-01,
2879,1.392E-01,
2880,1.432E-01,
2881,1.435E-01,
2882,1.452E-01,
2922,1.242E-01,
2923,1.379E-01,
2924,1.418E-01,
2925,1.422E-01,
2926,1.441E-01,
2966,1.229E-01,
2967,1.365E-01,
2968,1.405E-01,
2969,1.409E-01,
2970,1.430E-01,
3010,1.216E-01,
3011,1.352E-01,
3012,1.391E-01,
3013,1.396E-01,
3014,1.419E-01,
3054,1.203E-01,
3055,1.339E-01,
3056,1.378E-01,
3057,1.383E-01,
3058,1.407E-01,
3098,1.190E-01,
3099,1.325E-01,
3100,1.365E-01,
3101,1.370E-01,
3102,1.396E-01,
3142,1.177E-01,
3143,1.312E-01,
3144,1.351E-01,
3145,1.357E-01,
3146,1.385E-01,
3186,1.164E-01,
3187,1.298E-01,
3188,1.338E-01,
3189,1.344E-01,
3190,1.374E-01,
3230,1.151E-01,
3231,1.285E-01,
3232,1.325E-01,
3233,1.331E-01,
3234,1.362E-01,
3274,1.138E-01,
3275,1.272E-01,
3276,1.311E-01,
3277,1.318E-01,
3278,1.351E-01,
3318,1.125E-01,
3319,1.258E-01,
3320,1.298E-01,
3321,1.305E-01,
3322,1.340E-01,
3362,1.112E-01,
3363,1.245E-01,
3364,1.285E-01,
3365,1.293E-01,
3366,1.329E-01,
3406,1.099E-01,
3407,1.232E-01,
3408,1.271E-01,
3409,1.280E-01,
3410,1.317E-01,
3450,1.087E-01,
3451,1.218E-01,
3452,1.258E-01,
3453,1.267E-01,
3454,1.306E-01,
3494,1.074E-01,
3495,1.205E-01,
3496,1.245E-01,
3497,1.254E-01,
3498,1.295E-01,
3538,1.061E-01,
3539,1.192E-01,
3540,1.232E-01,
3541,1.241E-01,
3542,1.284E-01,
3582,1.048E-01,
3583,1.179E-01,
3584,1.218E-01,
3585,1.228E-01,
3586,1.273E-01,
3626,1.035E-01,
3627,1.165E-01,
3628,1.205E-01,
3629,1.216E-01,
3630,1.262E-01,
3670,1.022E-01,
3671,1.152E-01,
3672,1.192E-01,
3673,1.203E-01,
3674,1.251E-01,
3714,1.009E-01,
3715,1.139E-01,
3716,1.179E-01,
3717,1.190E-01,
3718,1.240E-01,
3758,9.963E-02,
3759,1.126E-01,
3760,1.166E-01,
3761,1.178E-01,
3762,1.229E-01,
3802,9.835E-02,
3803,1.113E-01,
3804,1.153E-01,
3805,1.165E-01,
3806,1.218E-01,
3846,9.707E-02,
3847,1.100E-01,
3848,1.140E-01,
3849,1.152E-01,
3850,1.207E-01,
3890,9.580E-02,
3891,1.087E-01,
3892,1.127E-01,
3893,1.140E-01,
3894,1.196E-01,
3934,9.453E-02,
3935,1.074E-01,
3936,1.114E-01,
3937,1.127E-01,
3938,1.185E-01,
2657,1.278E-01,
2701,1.256E-01,
2745,1.235E-01,
2789,1.214E-01,
2833,1.192E-01,
2877,1.171E-01,
2921,1.149E-01,
2965,1.128E-01,
3009,1.107E-01,
3053,1.085E-01,
3097,1.064E-01,
3141,1.048E-01,
3185,1.035E-01,
3229,1.022E-01,
3273,1.010E-01,
3317,9.966E-02,
3361,9.837E-02,
3405,9.708E-02,
3449,9.579E-02,
3493,9.450E-02,
3537,9.321E-02,
3581,9.192E-02,
3625,9.063E-02,
3669,8.934E-02,
3713,8.805E-02,
3757,8.676E-02,
3801,8.547E-02,
3845,8.418E-02,
3889,8.290E-02,
3933,8.162E-02,
2663,1.607E-01,
2707,1.598E-01,
2751,1.589E-01,
2795,1.580E-01,
2839,1.571E-01,
2883,1.562E-01,
2927,1.553E-01,
2971,1.544E-01,
3015,1.535E-01,
3059,1.526E-01,
3103,1.517E-01,
3147,1.508E-01,
3191,1.499E-01,
3235,1.490E-01,
3279,1.481E-01,
3323,1.472E-01,
3367,1.463E-01,
3411,1.454E-01,
3455,1.445E-01,
3499,1.436E-01,
3543,1.427E-01,
3587,1.419E-01,
3631,1.410E-01,
3675,1.401E-01,
3719,1.392E-01,
3763,1.384E-01,
3807,1.375E-01,
3851,1.367E-01,
3895,1.358E-01,
3939,1.350E-01,
3978,9.327E-02,
3979,1.061E-01,
3980,1.101E-01,
3981,1.115E-01,
3982,1.175E-01,
4022,9.201E-02,
4023,1.048E-01,
4024,1.088E-01,
4025,1.103E-01,
4026,1.164E-01,
4066,9.076E-02,
4067,1.035E-01,
4068,1.075E-01,
4069,1.091E-01,
4070,1.154E-01,
4110,8.952E-02,
4111,1.023E-01,
4112,1.063E-01,
4113,1.078E-01,
4114,1.143E-01,
4154,8.829E-02,
4155,1.010E-01,
4156,1.050E-01,
4157,1.066E-01,
4158,1.133E-01,
4198,8.708E-02,
4199,9.980E-02,
4200,1.038E-01,
4201,1.055E-01,
4202,1.123E-01,
4242,8.588E-02,
4243,9.858E-02,
4244,1.026E-01,
4245,1.043E-01,
4246,1.113E-01,
4286,8.469E-02,
4287,9.738E-02,
4288,1.014E-01,
4289,1.031E-01,
4290,1.103E-01,
4330,8.353E-02,
4331,9.620E-02,
4332,1.002E-01,
4333,1.020E-01,
4334,1.094E-01,
4374,8.239E-02,
4375,9.505E-02,
4376,9.908E-02,
4377,1.009E-01,
4378,1.084E-01,
4418,8.128E-02,
4419,9.393E-02,
4420,9.796E-02,
4421,9.985E-02,
4422,1.075E-01,
4462,8.020E-02,
4463,9.284E-02,
4464,9.689E-02,
4465,9.882E-02,
4466,1.066E-01,
4506,7.916E-02,
4507,9.181E-02,
4508,9.585E-02,
4509,9.783E-02,
4510,1.058E-01,
4550,7.816E-02,
4551,9.082E-02,
4552,9.487E-02,
4553,9.690E-02,
4554,1.050E-01,
4594,7.721E-02,
4595,8.990E-02,
4596,9.396E-02,
4597,9.602E-02,
4598,1.042E-01,
4638,7.632E-02,
4639,8.906E-02,
4640,9.312E-02,
4641,9.523E-02,
4642,1.036E-01,
4682,7.549E-02,
4683,8.830E-02,
4684,9.238E-02,
4685,9.452E-02,
4686,1.029E-01,
4726,7.474E-02,
4727,8.765E-02,
4728,9.173E-02,
4729,9.390E-02,
4730,1.024E-01,
4770,7.405E-02,
4771,8.709E-02,
4772,9.120E-02,
4773,9.340E-02,
4774,1.020E-01,
4814,7.340E-02,
4815,8.664E-02,
4816,9.077E-02,
4817,9.301E-02,
4818,1.017E-01,
4858,7.277E-02,
4859,8.624E-02,
4860,9.045E-02,
4861,9.274E-02,
4862,1.015E-01,
4902,7.205E-02,
4903,8.586E-02,
4904,9.017E-02,
4905,9.256E-02,
4906,1.014E-01,
4946,7.112E-02,
4947,8.534E-02,
4948,8.990E-02,
4949,9.245E-02,
4950,1.016E-01,
4990,6.979E-02,
4991,8.459E-02,
4992,8.945E-02,
4993,9.235E-02,
4994,1.019E-01,
5034,6.782E-02,
5035,8.339E-02,
5036,8.885E-02,
5037,9.219E-02,
5038,1.024E-01,
5078,6.511E-02,
5079,8.171E-02,
5080,8.782E-02,
5081,9.197E-02,
5082,1.031E-01,
5122,6.139E-02,
5123,8.002E-02,
5124,8.710E-02,
5125,9.172E-02,
5126,1.038E-01,
5166,5.817E-02,
5167,7.769E-02,
5168,8.569E-02,
5169,9.130E-02,
5170,1.039E-01,
5210,5.300E-02,
5211,7.925E-02,
5212,8.713E-02,
5213,9.124E-02,
5214,1.031E-01,
5254,4.886E-02,
5255,6.736E-02,
5256,7.619E-02,
5257,8.628E-02,
5258,1.006E-01,
3977,8.034E-02,
4021,7.906E-02,
4065,7.779E-02,
4109,7.653E-02,
4153,7.527E-02,
4197,7.402E-02,
4241,7.278E-02,
4285,7.156E-02,
4329,7.035E-02,
4373,6.915E-02,
4417,6.797E-02,
4461,6.682E-02,
4505,6.568E-02,
4549,6.457E-02,
4593,6.348E-02,
4637,6.243E-02,
4681,6.141E-02,
4725,6.042E-02,
4769,5.947E-02,
4813,5.853E-02,
4857,5.756E-02,
4901,5.650E-02,
4945,5.524E-02,
4989,5.357E-02,
5033,5.133E-02,
5077,4.820E-02,
5121,4.434E-02,
5165,4.000E-02,
5209,3.639E-02,
5253,4.199E-02,
3983,1.341E-01,
4027,1.333E-01,
4071,1.325E-01,
4115,1.317E-01,
4159,1.309E-01,
4203,1.301E-01,
4247,1.293E-01,
4291,1.285E-01,
4335,1.278E-01,
4379,1.271E-01,
4423,1.263E-01,
4467,1.256E-01,
4511,1.250E-01,
4555,1.243E-01,
4599,1.237E-01,
4643,1.232E-01,
4687,1.226E-01,
4731,1.222E-01,
4775,1.218E-01,
4819,1.215E-01,
4863,1.212E-01,
4907,1.211E-01,
4951,1.212E-01,
4995,1.214E-01,
5039,1.217E-01,
5083,1.219E-01,
5127,1.215E-01,
5171,1.202E-01,
5215,1.179E-01,
5259,1.169E-01,
2656,1.278E-01,
2700,1.256E-01,
2744,1.235E-01,
2788,1.213E-01,
2832,1.192E-01,
2876,1.171E-01,
2920,1.149E-01,
2964,1.128E-01,
3008,1.106E-01,
3052,1.085E-01,
3096,1.063E-01,
3140,1.042E-01,
3184,1.020E-01,
3228,9.987E-02,
3272,9.772E-02,
3316,9.557E-02,
3360,9.342E-02,
3404,9.128E-02,
3448,8.913E-02,
3492,8.698E-02,
3536,8.483E-02,
3580,8.268E-02,
3624,8.053E-02,
3668,7.838E-02,
3712,7.623E-02,
3756,7.410E-02,
3800,7.281E-02,
3844,7.152E-02,
3888,7.022E-02,
3932,6.893E-02,
3976,6.763E-02,
4020,6.634E-02,
4064,6.504E-02,
4108,6.375E-02,
4152,6.246E-02,
4196,6.118E-02,
4240,5.990E-02,
4284,5.862E-02,
4328,5.734E-02,
4372,5.607E-02,
4416,5.481E-02,
4460,5.355E-02,
4504,5.229E-02,
4548,5.103E-02,
4592,4.978E-02,
4636,4.854E-02,
4680,4.730E-02,
4724,4.607E-02,
4768,4.485E-02,
4812,4.364E-02,
4856,4.244E-02,
4900,4.122E-02,
4944,3.994E-02,
4988,3.855E-02,
5032,3.691E-02,
5076,3.503E-02,
5120,3.275E-02,
5164,2.939E-02,
5208,2.801E-02,
5252,3.156E-02,
2664,1.656E-01,
2665,1.653E-01,
2666,1.598E-01,
2708,1.649E-01,
2709,1.649E-01,
2710,1.596E-01,
2752,1.642E-01,
2753,1.644E-01,
2754,1.594E-01,
2796,1.636E-01,
2797,1.640E-01,
2798,1.592E-01,
2840,1.629E-01,
2841,1.635E-01,
2842,1.589E-01,
2884,1.622E-01,
2885,1.631E-01,
2886,1.587E-01,
2928,1.615E-01,
2929,1.626E-01,
2930,1.585E-01,
2972,1.609E-01,
2973,1.622E-01,
2974,1.583E-01,
3016,1.602E-01,
3017,1.617E-01,
3018,1.580E-01,
3060,1.595E-01,
3061,1.613E-01,
3062,1.578E-01,
3104,1.588E-01,
3105,1.608E-01,
3106,1.576E-01,
3148,1.582E-01,
3149,1.604E-01,
3150,1.574E-01,
3192,1.575E-01,
3193,1.599E-01,
3194,1.572E-01,
3236,1.568E-01,
3237,1.595E-01,
3238,1.569E-01,
3280,1.562E-01,
3281,1.590E-01,
3282,1.567E-01,
3324,1.555E-01,
3325,1.586E-01,
3326,1.565E-01,
3368,1.548E-01,
3369,1.581E-01,
3370,1.563E-01,
3412,1.542E-01,
3413,1.577E-01,
3414,1.560E-01,
3456,1.535E-01,
3457,1.573E-01,
3458,1.558E-01,
3500,1.528E-01,
3501,1.568E-01,
3502,1.556E-01,
3544,1.522E-01,
3545,1.564E-01,
3546,1.554E-01,
3588,1.515E-01,
3589,1.559E-01,
3590,1.552E-01,
3632,1.509E-01,
3633,1.555E-01,
3634,1.550E-01,
3676,1.502E-01,
3677,1.551E-01,
3678,1.547E-01,
3720,1.496E-01,
3721,1.547E-01,
3722,1.545E-01,
3764,1.489E-01,
3765,1.542E-01,
3766,1.543E-01,
3808,1.483E-01,
3809,1.538E-01,
3810,1.541E-01,
3852,1.476E-01,
3853,1.534E-01,
3854,1.539E-01,
3896,1.470E-01,
3897,1.530E-01,
3898,1.537E-01,
3940,1.464E-01,
3941,1.525E-01,
3942,1.534E-01,
3984,1.458E-01,
3985,1.521E-01,
3986,1.532E-01,
4028,1.452E-01,
4029,1.517E-01,
4030,1.530E-01,
4072,1.446E-01,
4073,1.513E-01,
4074,1.528E-01,
4116,1.439E-01,
4117,1.509E-01,
4118,1.526E-01,
4160,1.434E-01,
4161,1.505E-01,
4162,1.523E-01,
4204,1.428E-01,
4205,1.501E-01,
4206,1.521E-01,
4248,1.422E-01,
4249,1.497E-01,
4250,1.519E-01,
4292,1.416E-01,
4293,1.493E-01,
4294,1.517E-01,
4336,1.410E-01,
4337,1.489E-01,
4338,1.515E-01,
4380,1.405E-01,
4381,1.485E-01,
4382,1.512E-01,
4424,1.399E-01,
4425,1.481E-01,
4426,1.510E-01,
4468,1.394E-01,
4469,1.477E-01,
4470,1.507E-01,
4512,1.389E-01,
4513,1.473E-01,
4514,1.505E-01,
4556,1.383E-01,
4557,1.469E-01,
4558,1.502E-01,
4600,1.378E-01,
4601,1.465E-01,
4602,1.498E-01,
4644,1.374E-01,
4645,1.460E-01,
4646,1.494E-01,
4688,1.369E-01,
4689,1.456E-01,
4690,1.490E-01,
4732,1.364E-01,
4733,1.450E-01,
4734,1.484E-01,
4776,1.359E-01,
4777,1.444E-01,
4778,1.477E-01,
4820,1.355E-01,
4821,1.438E-01,
4822,1.469E-01,
4864,1.350E-01,
4865,1.429E-01,
4866,1.459E-01,
4908,1.345E-01,
4909,1.420E-01,
4910,1.446E-01,
4952,1.340E-01,
4953,1.407E-01,
4954,1.429E-01,
4996,1.333E-01,
4997,1.392E-01,
4998,1.409E-01,
5040,1.325E-01,
5041,1.373E-01,
5042,1.386E-01,
5084,1.313E-01,
5085,1.352E-01,
5086,1.363E-01,
5128,1.294E-01,
5129,1.330E-01,
5130,1.343E-01,
5172,1.273E-01,
5173,1.314E-01,
5174,1.332E-01,
5216,1.259E-01,
5217,1.311E-01,
5218,1.332E-01,
5260,1.265E-01,
5261,1.320E-01,
5262,1.341E-01,
15,5.008E-01,
59,4.143E-01,
103,2.570E-01,
147,2.520E-01,
191,2.512E-01,
235,2.490E-01,
279,2.462E-01,
323,2.434E-01,
367,2.407E-01,
411,2.382E-01,
455,2.359E-01,
499,2.336E-01,
543,2.314E-01,
587,2.292E-01,
631,2.271E-01,
675,2.249E-01,
719,2.227E-01,
763,2.206E-01,
807,2.184E-01,
851,2.163E-01,
895,2.141E-01,
939,2.119E-01,
983,2.098E-01,
1027,2.076E-01,
1071,2.055E-01,
1115,2.033E-01,
1159,2.011E-01,
1203,1.990E-01,
1247,1.968E-01,
1291,1.946E-01,
1335,1.925E-01,
1379,1.903E-01,
1423,1.882E-01,
1467,1.860E-01,
1511,1.838E-01,
1555,1.817E-01,
1599,1.795E-01,
1643,1.774E-01,
1687,1.752E-01,
1731,1.730E-01,
1775,1.709E-01,
1819,1.687E-01,
1863,1.666E-01,
1907,1.644E-01,
1951,1.623E-01,
1995,1.601E-01,
2039,1.580E-01,
2083,1.558E-01,
2127,1.536E-01,
2171,1.515E-01,
2215,1.493E-01,
2259,1.472E-01,
2303,1.450E-01,
2347,1.429E-01,
2391,1.407E-01,
2435,1.386E-01,
2479,1.364E-01,
2523,1.343E-01,
2567,1.321E-01,
2611,1.299E-01,
14,6.638E-01,
58,3.737E-01,
102,2.497E-01,
146,2.472E-01,
190,2.459E-01,
234,2.444E-01,
278,2.427E-01,
322,2.409E-01,
366,2.390E-01,
410,2.371E-01,
454,2.352E-01,
498,2.333E-01,
542,2.313E-01,
586,2.293E-01,
630,2.273E-01,
674,2.252E-01,
718,2.231E-01,
762,2.209E-01,
806,2.188E-01,
850,2.167E-01,
894,2.145E-01,
938,2.123E-01,
982,2.102E-01,
1026,2.080E-01,
1070,2.058E-01,
1114,2.036E-01,
1158,2.014E-01,
1202,1.993E-01,
1246,1.971E-01,
1290,1.949E-01,
9,2.888E-01,
10,4.949E-01,
11,4.994E-01,
12,3.782E-01,
13,6.113E-01,
53,3.304E-01,
54,2.660E-01,
55,2.535E-01,
56,2.558E-01,
57,2.607E-01,
97,2.472E-01,
98,2.147E-01,
99,2.337E-01,
100,2.377E-01,
101,2.432E-01,
141,2.007E-01,
142,2.128E-01,
143,2.327E-01,
144,2.371E-01,
145,2.432E-01,
185,1.792E-01,
186,2.116E-01,
187,2.311E-01,
188,2.361E-01,
189,2.412E-01,
229,1.715E-01,
230,2.107E-01,
231,2.319E-01,
232,2.370E-01,
233,2.405E-01,
273,1.702E-01,
274,2.098E-01,
275,2.318E-01,
276,2.369E-01,
277,2.401E-01,
317,1.687E-01,
318,2.087E-01,
319,2.312E-01,
320,2.362E-01,
321,2.390E-01,
361,1.671E-01,
362,2.072E-01,
363,2.300E-01,
364,2.349E-01,
365,2.376E-01,
405,1.654E-01,
406,2.055E-01,
407,2.284E-01,
408,2.333E-01,
409,2.360E-01,
449,1.638E-01,
450,2.037E-01,
451,2.265E-01,
452,2.315E-01,
453,2.343E-01,
493,1.622E-01,
494,2.019E-01,
495,2.246E-01,
496,2.296E-01,
497,2.324E-01,
537,1.606E-01,
538,2.001E-01,
539,2.227E-01,
540,2.277E-01,
541,2.305E-01,
581,1.590E-01,
582,1.983E-01,
583,2.207E-01,
584,2.257E-01,
585,2.286E-01,
625,1.575E-01,
626,1.965E-01,
627,2.188E-01,
628,2.237E-01,
629,2.266E-01,
669,1.559E-01,
670,1.946E-01,
671,2.168E-01,
672,2.217E-01,
673,2.245E-01,
713,1.544E-01,
714,1.928E-01,
715,2.148E-01,
716,2.197E-01,
717,2.225E-01,
757,1.528E-01,
758,1.910E-01,
759,2.128E-01,
760,2.176E-01,
761,2.204E-01,
801,1.513E-01,
802,1.891E-01,
803,2.108E-01,
804,2.155E-01,
805,2.182E-01,
845,1.498E-01,
846,1.872E-01,
847,2.087E-01,
848,2.134E-01,
849,2.161E-01,
889,1.483E-01,
890,1.854E-01,
891,2.066E-01,
892,2.113E-01,
893,2.139E-01,
933,1.468E-01,
934,1.835E-01,
935,2.045E-01,
936,2.092E-01,
937,2.118E-01,
977,1.452E-01,
978,1.816E-01,
979,2.024E-01,
980,2.070E-01,
981,2.096E-01,
1021,1.437E-01,
1022,1.797E-01,
1023,2.003E-01,
1024,2.049E-01,
1025,2.074E-01,
1065,1.422E-01,
1066,1.778E-01,
1067,1.982E-01,
1068,2.027E-01,
1069,2.053E-01,
1109,1.407E-01,
1110,1.759E-01,
1111,1.961E-01,
1112,2.006E-01,
1113,2.031E-01,
1153,1.392E-01,
1154,1.741E-01,
1155,1.940E-01,
1156,1.984E-01,
1157,2.009E-01,
1197,1.377E-01,
1198,1.722E-01,
1199,1.919E-01,
1200,1.963E-01,
1201,1.987E-01,
1241,1.362E-01,
1242,1.703E-01,
1243,1.898E-01,
1244,1.941E-01,
1245,1.966E-01,
1285,1.347E-01,
1286,1.684E-01,
1287,1.877E-01,
1288,1.920E-01,
1289,1.944E-01,
8,1.661E-01,
52,2.179E-01,
96,2.351E-01,
140,2.065E-01,
184,1.841E-01,
228,1.698E-01,
272,1.596E-01,
316,1.523E-01,
360,1.466E-01,
404,1.425E-01,
448,1.397E-01,
492,1.379E-01,
536,1.369E-01,
580,1.364E-01,
624,1.362E-01,
668,1.363E-01,
712,1.363E-01,
756,1.364E-01,
800,1.364E-01,
844,1.363E-01,
888,1.361E-01,
932,1.358E-01,
976,1.354E-01,
1020,1.350E-01,
1064,1.345E-01,
1108,1.339E-01,
1152,1.333E-01,
1196,1.327E-01,
1240,1.321E-01,
1284,1.314E-01,
1334,1.927E-01,
1378,1.906E-01,
1422,1.884E-01,
1466,1.862E-01,
1510,1.841E-01,
1554,1.819E-01,
1598,1.797E-01,
1642,1.775E-01,
1686,1.754E-01,
1730,1.732E-01,
1774,1.710E-01,
1818,1.689E-01,
1862,1.667E-01,
1906,1.646E-01,
1950,1.624E-01,
1994,1.602E-01,
2038,1.581E-01,
2082,1.559E-01,
2126,1.537E-01,
2170,1.516E-01,
2214,1.494E-01,
2258,1.472E-01,
2302,1.451E-01,
2346,1.429E-01,
2390,1.408E-01,
2434,1.386E-01,
2478,1.364E-01,
2522,1.343E-01,
2566,1.321E-01,
2610,1.299E-01,
1329,1.332E-01,
1330,1.665E-01,
1331,1.856E-01,
1332,1.898E-01,
1333,1.922E-01,
1373,1.317E-01,
1374,1.646E-01,
1375,1.835E-01,
1376,1.877E-01,
1377,1.900E-01,
1417,1.302E-01,
1418,1.628E-01,
1419,1.814E-01,
1420,1.855E-01,
1421,1.879E-01,
1461,1.287E-01,
1462,1.609E-01,
1463,1.793E-01,
1464,1.834E-01,
1465,1.857E-01,
1505,1.272E-01,
1506,1.590E-01,
1507,1.772E-01,
1508,1.812E-01,
1509,1.835E-01,
1549,1.257E-01,
1550,1.571E-01,
1551,1.751E-01,
1552,1.791E-01,
1553,1.814E-01,
1593,1.242E-01,
1594,1.553E-01,
1595,1.730E-01,
1596,1.770E-01,
1597,1.792E-01,
1637,1.227E-01,
1638,1.534E-01,
1639,1.709E-01,
1640,1.748E-01,
1641,1.770E-01,
1681,1.217E-01,
1682,1.515E-01,
1683,1.688E-01,
1684,1.727E-01,
1685,1.749E-01,
1725,1.208E-01,
1726,1.496E-01,
1727,1.668E-01,
1728,1.705E-01,
1729,1.727E-01,
1769,1.198E-01,
1770,1.477E-01,
1771,1.647E-01,
1772,1.684E-01,
1773,1.705E-01,
1813,1.189E-01,
1814,1.459E-01,
1815,1.626E-01,
1816,1.663E-01,
1817,1.684E-01,
1857,1.180E-01,
1858,1.440E-01,
1859,1.605E-01,
1860,1.641E-01,
1861,1.662E-01,
1901,1.170E-01,
1902,1.421E-01,
1903,1.584E-01,
1904,1.620E-01,
1905,1.640E-01,
1945,1.161E-01,
1946,1.403E-01,
1947,1.563E-01,
1948,1.599E-01,
1949,1.619E-01,
1989,1.152E-01,
1990,1.384E-01,
1991,1.542E-01,
1992,1.577E-01,
1993,1.597E-01,
2033,1.142E-01,
2034,1.365E-01,
2035,1.521E-01,
2036,1.556E-01,
2037,1.576E-01,
2077,1.133E-01,
2078,1.346E-01,
2079,1.501E-01,
2080,1.535E-01,
2081,1.554E-01,
2121,1.124E-01,
2122,1.328E-01,
2123,1.480E-01,
2124,1.513E-01,
2125,1.532E-01,
2165,1.114E-01,
2166,1.309E-01,
2167,1.459E-01,
2168,1.492E-01,
2169,1.511E-01,
2209,1.105E-01,
2210,1.290E-01,
2211,1.438E-01,
2212,1.471E-01,
2213,1.489E-01,
2253,1.096E-01,
2254,1.271E-01,
2255,1.417E-01,
2256,1.449E-01,
2257,1.468E-01,
2297,1.086E-01,
2298,1.253E-01,
2299,1.396E-01,
2300,1.428E-01,
2301,1.446E-01,
2341,1.077E-01,
2342,1.234E-01,
2343,1.375E-01,
2344,1.407E-01,
2345,1.424E-01,
2385,1.068E-01,
2386,1.215E-01,
2387,1.354E-01,
2388,1.385E-01,
2389,1.403E-01,
2429,1.058E-01,
2430,1.197E-01,
2431,1.334E-01,
2432,1.364E-01,
2433,1.381E-01,
2473,1.049E-01,
2474,1.178E-01,
2475,1.313E-01,
2476,1.343E-01,
2477,1.360E-01,
2517,1.040E-01,
2518,1.159E-01,
2519,1.292E-01,
2520,1.321E-01,
2521,1.338E-01,
2561,1.031E-01,
2562,1.140E-01,
2563,1.271E-01,
2564,1.300E-01,
2565,1.316E-01,
2605,1.021E-01,
2606,1.122E-01,
2607,1.250E-01,
2608,1.279E-01,
2609,1.295E-01,
1328,1.307E-01,
1372,1.300E-01,
1416,1.293E-01,
1460,1.286E-01,
1504,1.278E-01,
1548,1.271E-01,
1592,1.264E-01,
1636,1.257E-01,
1680,1.250E-01,
1724,1.242E-01,
1768,1.235E-01,
1812,1.228E-01,
1856,1.221E-01,
1900,1.214E-01,
1944,1.207E-01,
1988,1.199E-01,
2032,1.192E-01,
2076,1.185E-01,
2120,1.178E-01,
2164,1.171E-01,
2208,1.164E-01,
2252,1.157E-01,
2296,1.150E-01,
2340,1.143E-01,
2384,1.136E-01,
2428,1.129E-01,
2472,1.122E-01,
2516,1.115E-01,
2560,1.108E-01,
2604,1.101E-01,
5,3.947E-02,
6,9.534E-02,
7,1.357E-01,
49,2.160E-02,
50,7.443E-02,
51,1.402E-01,
93,5.480E-02,
94,1.124E-01,
95,1.744E-01,
137,7.180E-02,
138,1.307E-01,
139,1.816E-01,
181,7.711E-02,
182,1.300E-01,
183,1.662E-01,
225,7.352E-02,
226,1.181E-01,
227,1.500E-01,
269,6.914E-02,
270,1.065E-01,
271,1.378E-01,
313,6.929E-02,
314,1.001E-01,
315,1.297E-01,
357,7.287E-02,
358,9.885E-02,
359,1.255E-01,
401,7.817E-02,
402,1.008E-01,
403,1.241E-01,
445,8.364E-02,
446,1.042E-01,
447,1.242E-01,
489,8.838E-02,
490,1.076E-01,
491,1.250E-01,
533,9.204E-02,
534,1.107E-01,
535,1.260E-01,
577,9.464E-02,
578,1.130E-01,
579,1.271E-01,
621,9.634E-02,
622,1.147E-01,
623,1.279E-01,
665,9.738E-02,
666,1.158E-01,
667,1.286E-01,
709,9.797E-02,
710,1.165E-01,
711,1.291E-01,
753,9.826E-02,
754,1.170E-01,
755,1.295E-01,
797,9.838E-02,
798,1.172E-01,
799,1.296E-01,
841,9.840E-02,
842,1.172E-01,
843,1.297E-01,
885,9.837E-02,
886,1.172E-01,
887,1.296E-01,
929,9.832E-02,
930,1.171E-01,
931,1.295E-01,
973,9.827E-02,
974,1.169E-01,
975,1.292E-01,
1017,9.821E-02,
1018,1.167E-01,
1019,1.289E-01,
1061,9.816E-02,
1062,1.165E-01,
1063,1.286E-01,
1105,9.811E-02,
1106,1.163E-01,
1107,1.282E-01,
1149,9.806E-02,
1150,1.160E-01,
1151,1.278E-01,
1193,9.802E-02,
1194,1.158E-01,
1195,1.274E-01,
1237,9.798E-02,
1238,1.155E-01,
1239,1.269E-01,
1281,9.794E-02,
1282,1.153E-01,
1283,1.264E-01,
1325,9.790E-02,
1326,1.150E-01,
1327,1.260E-01,
1369,9.786E-02,
1370,1.148E-01,
1371,1.255E-01,
1413,9.783E-02,
1414,1.145E-01,
1415,1.250E-01,
1457,9.779E-02,
1458,1.142E-01,
1459,1.245E-01,
1501,9.776E-02,
1502,1.140E-01,
1503,1.240E-01,
1545,9.772E-02,
1546,1.137E-01,
1547,1.235E-01,
1589,9.769E-02,
1590,1.134E-01,
1591,1.230E-01,
1633,9.766E-02,
1634,1.132E-01,
1635,1.225E-01,
1677,9.764E-02,
1678,1.129E-01,
1679,1.220E-01,
1721,9.761E-02,
1722,1.126E-01,
1723,1.215E-01,
1765,9.759E-02,
1766,1.124E-01,
1767,1.210E-01,
1809,9.756E-02,
1810,1.121E-01,
1811,1.205E-01,
1853,9.754E-02,
1854,1.119E-01,
1855,1.200E-01,
1897,9.753E-02,
1898,1.116E-01,
1899,1.196E-01,
1941,9.751E-02,
1942,1.114E-01,
1943,1.191E-01,
1985,9.749E-02,
1986,1.111E-01,
1987,1.186E-01,
2029,9.748E-02,
2030,1.109E-01,
2031,1.181E-01,
2073,9.747E-02,
2074,1.106E-01,
2075,1.176E-01,
2117,9.746E-02,
2118,1.104E-01,
2119,1.172E-01,
2161,9.745E-02,
2162,1.101E-01,
2163,1.167E-01,
2205,9.744E-02,
2206,1.099E-01,
2207,1.162E-01,
2249,9.743E-02,
2250,1.096E-01,
2251,1.157E-01,
2293,9.742E-02,
2294,1.094E-01,
2295,1.153E-01,
2337,9.742E-02,
2338,1.092E-01,
2339,1.148E-01,
2381,9.741E-02,
2382,1.089E-01,
2383,1.143E-01,
2425,9.741E-02,
2426,1.087E-01,
2427,1.139E-01,
2469,9.741E-02,
2470,1.085E-01,
2471,1.134E-01,
2513,9.740E-02,
2514,1.082E-01,
2515,1.129E-01,
2557,9.740E-02,
2558,1.080E-01,
2559,1.125E-01,
2601,9.740E-02,
2602,1.078E-01,
2603,1.120E-01,
2655,1.278E-01,
2699,1.256E-01,
2743,1.235E-01,
2787,1.213E-01,
2831,1.192E-01,
2875,1.170E-01,
2919,1.149E-01,
2963,1.127E-01,
3007,1.105E-01,
3051,1.084E-01,
3095,1.062E-01,
3139,1.041E-01,
3183,1.019E-01,
3227,9.977E-02,
3271,9.761E-02,
3315,9.546E-02,
3359,9.330E-02,
3403,9.114E-02,
3447,8.899E-02,
3491,8.683E-02,
3535,8.468E-02,
3579,8.252E-02,
3623,8.036E-02,
3667,7.821E-02,
3711,7.605E-02,
3755,7.390E-02,
3799,7.174E-02,
3843,6.958E-02,
3887,6.743E-02,
3931,6.527E-02,
3975,6.311E-02,
4019,6.096E-02,
4063,5.880E-02,
4107,5.664E-02,
4151,5.448E-02,
4195,5.232E-02,
4239,5.016E-02,
4283,4.800E-02,
4327,4.583E-02,
4371,4.366E-02,
4415,4.164E-02,
4459,4.027E-02,
4503,3.890E-02,
4547,3.750E-02,
4591,3.607E-02,
4635,3.462E-02,
4679,3.314E-02,
4723,3.163E-02,
4767,3.010E-02,
4811,2.855E-02,
4855,2.702E-02,
4899,2.552E-02,
4943,2.411E-02,
4987,2.286E-02,
5031,2.190E-02,
5075,2.127E-02,
5119,2.080E-02,
5163,2.118E-02,
5207,2.065E-02,
5251,1.940E-02,
2654,1.278E-01,
2698,1.256E-01,
2742,1.235E-01,
2786,1.213E-01,
2830,1.191E-01,
2874,1.170E-01,
2918,1.148E-01,
2962,1.126E-01,
3006,1.105E-01,
3050,1.083E-01,
3094,1.062E-01,
3138,1.040E-01,
3182,1.018E-01,
3226,9.966E-02,
3270,9.750E-02,
3314,9.534E-02,
3358,9.317E-02,
3402,9.101E-02,
3446,8.885E-02,
3490,8.668E-02,
3534,8.452E-02,
3578,8.236E-02,
3622,8.019E-02,
3666,7.803E-02,
3710,7.587E-02,
3754,7.371E-02,
3798,7.155E-02,
3842,6.938E-02,
3886,6.727E-02,
3930,6.520E-02,
2649,1.012E-01,
2650,1.103E-01,
2651,1.229E-01,
2652,1.257E-01,
2653,1.273E-01,
2693,1.003E-01,
2694,1.084E-01,
2695,1.208E-01,
2696,1.236E-01,
2697,1.252E-01,
2737,9.934E-02,
2738,1.065E-01,
2739,1.187E-01,
2740,1.215E-01,
2741,1.230E-01,
2781,9.841E-02,
2782,1.047E-01,
2783,1.167E-01,
2784,1.193E-01,
2785,1.208E-01,
2825,9.749E-02,
2826,1.028E-01,
2827,1.146E-01,
2828,1.172E-01,
2829,1.187E-01,
2869,9.656E-02,
2870,1.009E-01,
2871,1.125E-01,
2872,1.151E-01,
2873,1.165E-01,
2913,9.563E-02,
2914,9.906E-02,
2915,1.104E-01,
2916,1.129E-01,
2917,1.144E-01,
2957,9.471E-02,
2958,9.718E-02,
2959,1.083E-01,
2960,1.108E-01,
2961,1.122E-01,
3001,9.378E-02,
3002,9.531E-02,
3003,1.062E-01,
3004,1.087E-01,
3005,1.100E-01,
3045,9.286E-02,
3046,9.344E-02,
3047,1.041E-01,
3048,1.065E-01,
3049,1.079E-01,
3089,9.193E-02,
3090,9.157E-02,
3091,1.021E-01,
3092,1.044E-01,
3093,1.057E-01,
3133,9.101E-02,
3134,8.969E-02,
3135,9.997E-02,
3136,1.023E-01,
3137,1.036E-01,
3177,9.008E-02,
3178,8.782E-02,
3179,9.788E-02,
3180,1.001E-01,
3181,1.014E-01,
3221,8.916E-02,
3222,8.595E-02,
3223,9.580E-02,
3224,9.798E-02,
3225,9.925E-02,
3265,8.824E-02,
3266,8.408E-02,
3267,9.371E-02,
3268,9.585E-02,
3269,9.709E-02,
3309,8.731E-02,
3310,8.220E-02,
3311,9.162E-02,
3312,9.372E-02,
3313,9.493E-02,
3353,8.639E-02,
3354,8.033E-02,
3355,8.954E-02,
3356,9.158E-02,
3357,9.277E-02,
3397,8.547E-02,
3398,7.846E-02,
3399,8.745E-02,
3400,8.945E-02,
3401,9.061E-02,
3441,8.455E-02,
3442,7.659E-02,
3443,8.536E-02,
3444,8.732E-02,
3445,8.845E-02,
3485,8.363E-02,
3486,7.471E-02,
3487,8.328E-02,
3488,8.525E-02,
3489,8.638E-02,
3529,8.271E-02,
3530,7.284E-02,
3531,8.119E-02,
3532,8.322E-02,
3533,8.432E-02,
3573,8.180E-02,
3574,7.097E-02,
3575,7.910E-02,
3576,8.119E-02,
3577,8.226E-02,
3617,8.088E-02,
3618,6.910E-02,
3619,7.702E-02,
3620,7.917E-02,
3621,8.020E-02,
3661,7.997E-02,
3662,6.723E-02,
3663,7.501E-02,
3664,7.714E-02,
3665,7.814E-02,
3705,7.905E-02,
3706,6.536E-02,
3707,7.304E-02,
3708,7.511E-02,
3709,7.608E-02,
3749,7.814E-02,
3750,6.349E-02,
3751,7.107E-02,
3752,7.308E-02,
3753,7.402E-02,
3793,7.724E-02,
3794,6.162E-02,
3795,6.909E-02,
3796,7.105E-02,
3797,7.196E-02,
3837,7.633E-02,
3838,5.975E-02,
3839,6.712E-02,
3840,6.902E-02,
3841,6.990E-02,
3881,7.543E-02,
3882,5.788E-02,
3883,6.515E-02,
3884,6.699E-02,
3885,6.784E-02,
3925,7.454E-02,
3926,5.601E-02,
3927,6.317E-02,
3928,6.496E-02,
3929,6.578E-02,
2648,1.094E-01,
2692,1.087E-01,
2736,1.080E-01,
2780,1.073E-01,
2824,1.066E-01,
2868,1.059E-01,
2912,1.053E-01,
2956,1.046E-01,
3000,1.039E-01,
3044,1.032E-01,
3088,1.025E-01,
3132,1.018E-01,
3176,1.011E-01,
3220,1.004E-01,
3264,9.972E-02,
3308,9.903E-02,
3352,9.834E-02,
3396,9.765E-02,
3440,9.697E-02,
3484,9.628E-02,
3528,9.559E-02,
3572,9.491E-02,
3616,9.422E-02,
3660,9.354E-02,
3704,9.286E-02,
3748,9.218E-02,
3792,9.150E-02,
3836,9.082E-02,
3880,9.015E-02,
3924,8.948E-02,
3974,6.314E-02,
4018,6.107E-02,
4062,5.901E-02,
4106,5.694E-02,
4150,5.488E-02,
4194,5.281E-02,
4238,5.073E-02,
4282,4.866E-02,
4326,4.658E-02,
4370,4.449E-02,
4414,4.239E-02,
4458,4.029E-02,
4502,3.817E-02,
4546,3.605E-02,
4590,3.390E-02,
4634,3.174E-02,
4678,2.957E-02,
4722,2.738E-02,
4766,2.516E-02,
4810,2.292E-02,
4854,2.065E-02,
4898,1.835E-02,
4942,1.600E-02,
4986,1.359E-02,
5030,1.109E-02,
5074,8.502E-03,
5118,6.007E-03,
5162,4.415E-03,
5206,7.256E-03,
5250,1.100E-02,
3969,7.366E-02,
3970,5.414E-02,
3971,6.120E-02,
3972,6.293E-02,
3973,6.372E-02,
4013,7.278E-02,
4014,5.228E-02,
4015,5.923E-02,
4016,6.090E-02,
4017,6.166E-02,
4057,7.192E-02,
4058,5.041E-02,
4059,5.725E-02,
4060,5.887E-02,
4061,5.960E-02,
4101,7.107E-02,
4102,4.911E-02,
4103,5.528E-02,
4104,5.684E-02,
4105,5.753E-02,
4145,7.025E-02,
4146,4.807E-02,
4147,5.330E-02,
4148,5.480E-02,
4149,5.547E-02,
4189,6.945E-02,
4190,4.704E-02,
4191,5.132E-02,
4192,5.277E-02,
4193,5.340E-02,
4233,6.868E-02,
4234,4.606E-02,
4235,4.934E-02,
4236,5.073E-02,
4237,5.133E-02,
4277,6.796E-02,
4278,4.511E-02,
4279,4.735E-02,
4280,4.868E-02,
4281,4.926E-02,
4321,6.729E-02,
4322,4.420E-02,
4323,4.536E-02,
4324,4.664E-02,
4325,4.718E-02,
4365,6.668E-02,
4366,4.336E-02,
4367,4.336E-02,
4368,4.458E-02,
4369,4.509E-02,
4409,6.614E-02,
4410,4.259E-02,
4411,4.135E-02,
4412,4.251E-02,
4413,4.299E-02,
4453,6.569E-02,
4454,4.189E-02,
4455,3.933E-02,
4456,4.044E-02,
4457,4.089E-02,
4497,6.535E-02,
4498,4.130E-02,
4499,3.730E-02,
4500,3.834E-02,
4501,3.876E-02,
4541,6.511E-02,
4542,4.081E-02,
4543,3.525E-02,
4544,3.623E-02,
4545,3.662E-02,
4585,6.501E-02,
4586,4.046E-02,
4587,3.318E-02,
4588,3.410E-02,
4589,3.446E-02,
4629,6.505E-02,
4630,4.024E-02,
4631,3.108E-02,
4632,3.194E-02,
4633,3.227E-02,
4673,6.523E-02,
4674,4.020E-02,
4675,2.896E-02,
4676,2.976E-02,
4677,3.006E-02,
4717,6.556E-02,
4718,4.033E-02,
4719,2.679E-02,
4720,2.753E-02,
4721,2.781E-02,
4761,6.603E-02,
4762,4.066E-02,
4763,2.459E-02,
4764,2.527E-02,
4765,2.553E-02,
4805,6.661E-02,
4806,4.120E-02,
4807,2.234E-02,
4808,2.296E-02,
4809,2.320E-02,
4849,6.725E-02,
4850,4.198E-02,
4851,2.268E-02,
4852,2.060E-02,
4853,2.082E-02,
4893,6.791E-02,
4894,4.298E-02,
4895,2.359E-02,
4896,1.916E-02,
4897,1.837E-02,
4937,6.848E-02,
4938,4.422E-02,
4939,2.480E-02,
4940,2.014E-02,
4941,1.615E-02,
4981,6.887E-02,
4982,4.565E-02,
4983,2.627E-02,
4984,2.147E-02,
4985,1.703E-02,
5025,6.885E-02,
5026,4.721E-02,
5027,2.791E-02,
5028,2.291E-02,
5029,1.828E-02,
5069,6.818E-02,
5070,4.872E-02,
5071,2.941E-02,
5072,2.412E-02,
5073,1.913E-02,
5113,6.635E-02,
5114,5.004E-02,
5115,3.054E-02,
5116,2.560E-02,
5117,2.032E-02,
5157,6.218E-02,
5158,5.077E-02,
5159,3.119E-02,
5160,2.333E-02,
5161,1.774E-02,
5201,5.608E-02,
5202,4.935E-02,
5203,3.427E-02,
5204,3.212E-02,
5205,2.443E-02,
5245,5.299E-02,
5246,4.927E-02,
5247,4.145E-02,
5248,3.175E-02,
5249,2.022E-02,
3968,8.881E-02,
4012,8.815E-02,
4056,8.751E-02,
4100,8.687E-02,
4144,8.626E-02,
4188,8.566E-02,
4232,8.510E-02,
4276,8.457E-02,
4320,8.408E-02,
4364,8.365E-02,
4408,8.327E-02,
4452,8.298E-02,
4496,8.276E-02,
4540,8.263E-02,
4584,8.260E-02,
4628,8.266E-02,
4672,8.281E-02,
4716,8.301E-02,
4760,8.322E-02,
4804,8.337E-02,
4848,8.337E-02,
4892,8.307E-02,
4936,8.232E-02,
4980,8.093E-02,
5024,7.874E-02,
5068,7.560E-02,
5112,7.136E-02,
5156,6.706E-02,
5200,6.363E-02,
5244,5.904E-02,
2645,9.740E-02,
2646,1.075E-01,
2647,1.115E-01,
2689,9.740E-02,
2690,1.073E-01,
2691,1.111E-01,
2733,9.740E-02,
2734,1.071E-01,
2735,1.106E-01,
2777,9.741E-02,
2778,1.068E-01,
2779,1.101E-01,
2821,9.741E-02,
2822,1.066E-01,
2823,1.097E-01,
2865,9.741E-02,
2866,1.064E-01,
2867,1.092E-01,
2909,9.742E-02,
2910,1.061E-01,
2911,1.088E-01,
2953,9.742E-02,
2954,1.059E-01,
2955,1.083E-01,
2997,9.743E-02,
2998,1.057E-01,
2999,1.078E-01,
3041,9.744E-02,
3042,1.055E-01,
3043,1.074E-01,
3085,9.744E-02,
3086,1.052E-01,
3087,1.069E-01,
3129,9.745E-02,
3130,1.050E-01,
3131,1.065E-01,
3173,9.746E-02,
3174,1.048E-01,
3175,1.060E-01,
3217,9.747E-02,
3218,1.046E-01,
3219,1.055E-01,
3261,9.748E-02,
3262,1.043E-01,
3263,1.051E-01,
3305,9.750E-02,
3306,1.041E-01,
3307,1.046E-01,
3349,9.751E-02,
3350,1.039E-01,
3351,1.042E-01,
3393,9.752E-02,
3394,1.037E-01,
3395,1.037E-01,
3437,9.754E-02,
3438,1.035E-01,
3439,1.033E-01,
3481,9.756E-02,
3482,1.032E-01,
3483,1.028E-01,
3525,9.757E-02,
3526,1.030E-01,
3527,1.024E-01,
3569,9.759E-02,
3570,1.028E-01,
3571,1.019E-01,
3613,9.760E-02,
3614,1.026E-01,
3615,1.015E-01,
3657,9.762E-02,
3658,1.024E-01,
3659,1.010E-01,
3701,9.764E-02,
3702,1.022E-01,
3703,1.006E-01,
3745,9.765E-02,
3746,1.019E-01,
3747,1.001E-01,
3789,9.767E-02,
3790,1.017E-01,
3791,9.966E-02,
3833,9.768E-02,
3834,1.015E-01,
3835,9.921E-02,
3877,9.769E-02,
3878,1.013E-01,
3879,9.876E-02,
3921,9.770E-02,
3922,1.011E-01,
3923,9.831E-02,
3965,9.771E-02,
3966,1.008E-01,
3967,9.787E-02,
4009,9.771E-02,
4010,1.006E-01,
4011,9.743E-02,
4053,9.771E-02,
4054,1.004E-01,
4055,9.700E-02,
4097,9.770E-02,
4098,1.002E-01,
4099,9.657E-02,
4141,9.769E-02,
4142,9.996E-02,
4143,9.615E-02,
4185,9.767E-02,
4186,9.975E-02,
4187,9.575E-02,
4229,9.764E-02,
4230,9.954E-02,
4231,9.537E-02,
4273,9.759E-02,
4274,9.933E-02,
4275,9.501E-02,
4317,9.754E-02,
4318,9.914E-02,
4319,9.467E-02,
4361,9.747E-02,
4362,9.895E-02,
4363,9.437E-02,
4405,9.737E-02,
4406,9.877E-02,
4407,9.411E-02,
4449,9.724E-02,
4450,9.859E-02,
4451,9.389E-02,
4493,9.706E-02,
4494,9.841E-02,
4495,9.371E-02,
4537,9.682E-02,
4538,9.821E-02,
4539,9.358E-02,
4581,9.651E-02,
4582,9.798E-02,
4583,9.348E-02,
4625,9.608E-02,
4626,9.769E-02,
4627,9.339E-02,
4669,9.552E-02,
4670,9.731E-02,
4671,9.330E-02,
4713,9.480E-02,
4714,9.679E-02,
4715,9.315E-02,
4757,9.388E-02,
4758,9.607E-02,
4759,9.288E-02,
4801,9.272E-02,
4802,9.510E-02,
4803,9.241E-02,
4845,9.131E-02,
4846,9.378E-02,
4847,9.161E-02,
4889,8.960E-02,
4890,9.205E-02,
4891,9.036E-02,
4933,8.756E-02,
4934,8.981E-02,
4935,8.849E-02,
4977,8.512E-02,
4978,8.702E-02,
4979,8.591E-02,
5021,8.217E-02,
5022,8.368E-02,
5023,8.262E-02,
5065,7.849E-02,
5066,8.001E-02,
5067,7.875E-02,
5109,7.402E-02,
5110,7.596E-02,
5111,7.492E-02,
5153,6.923E-02,
5154,7.121E-02,
5155,7.121E-02,
5197,6.454E-02,
5198,6.634E-02,
5199,6.650E-02,
5241,6.665E-02,
5242,6.554E-02,
5243,6.258E-02,
27,2.103E-02,
28,7.697E-02,
29,1.502E-01,
71,5.060E-02,
72,9.821E-02,
73,1.568E-01,
115,7.760E-02,
116,1.220E-01,
117,1.743E-01,
159,1.071E-01,
160,1.374E-01,
161,1.783E-01,
203,1.314E-01,
204,1.438E-01,
205,1.678E-01,
247,1.477E-01,
248,1.422E-01,
249,1.689E-01,
291,1.542E-01,
292,1.393E-01,
293,1.687E-01,
335,1.555E-01,
336,1.372E-01,
337,1.675E-01,
379,1.547E-01,
380,1.361E-01,
381,1.658E-01,
423,1.533E-01,
424,1.358E-01,
425,1.640E-01,
467,1.521E-01,
468,1.357E-01,
469,1.622E-01,
511,1.513E-01,
512,1.357E-01,
513,1.605E-01,
555,1.508E-01,
556,1.357E-01,
557,1.587E-01,
599,1.505E-01,
600,1.355E-01,
601,1.570E-01,
643,1.503E-01,
644,1.353E-01,
645,1.554E-01,
687,1.501E-01,
688,1.350E-01,
689,1.537E-01,
731,1.500E-01,
732,1.347E-01,
733,1.521E-01,
775,1.498E-01,
776,1.344E-01,
777,1.506E-01,
819,1.497E-01,
820,1.342E-01,
821,1.490E-01,
863,1.496E-01,
864,1.339E-01,
865,1.477E-01,
907,1.495E-01,
908,1.337E-01,
909,1.473E-01,
951,1.494E-01,
952,1.335E-01,
953,1.470E-01,
995,1.493E-01,
996,1.333E-01,
997,1.466E-01,
1039,1.493E-01,
1040,1.331E-01,
1041,1.463E-01,
1083,1.492E-01,
1084,1.330E-01,
1085,1.459E-01,
1127,1.492E-01,
1128,1.328E-01,
1129,1.456E-01,
1171,1.492E-01,
1172,1.326E-01,
1173,1.452E-01,
1215,1.492E-01,
1216,1.324E-01,
1217,1.448E-01,
1259,1.492E-01,
1260,1.322E-01,
1261,1.444E-01,
1303,1.492E-01,
1304,1.320E-01,
1305,1.441E-01,
1347,1.492E-01,
1348,1.318E-01,
1349,1.437E-01,
1391,1.492E-01,
1392,1.317E-01,
1393,1.433E-01,
1435,1.492E-01,
1436,1.315E-01,
1437,1.429E-01,
1479,1.492E-01,
1480,1.313E-01,
1481,1.425E-01,
1523,1.492E-01,
1524,1.311E-01,
1525,1.422E-01,
1567,1.492E-01,
1568,1.309E-01,
1569,1.418E-01,
1611,1.492E-01,
1612,1.307E-01,
1613,1.414E-01,
1655,1.492E-01,
1656,1.305E-01,
1657,1.410E-01,
1699,1.492E-01,
1700,1.303E-01,
1701,1.407E-01,
1743,1.492E-01,
1744,1.301E-01,
1745,1.403E-01,
1787,1.492E-01,
1788,1.300E-01,
1789,1.399E-01,
1831,1.492E-01,
1832,1.298E-01,
1833,1.395E-01,
1875,1.492E-01,
1876,1.296E-01,
1877,1.392E-01,
1919,1.492E-01,
1920,1.296E-01,
1921,1.388E-01,
1963,1.492E-01,
1964,1.298E-01,
1965,1.384E-01,
2007,1.492E-01,
2008,1.300E-01,
2009,1.381E-01,
2051,1.492E-01,
2052,1.302E-01,
2053,1.377E-01,
2095,1.492E-01,
2096,1.304E-01,
2097,1.373E-01,
2139,1.492E-01,
2140,1.307E-01,
2141,1.370E-01,
2183,1.492E-01,
2184,1.309E-01,
2185,1.366E-01,
2227,1.492E-01,
2228,1.311E-01,
2229,1.362E-01,
2271,1.492E-01,
2272,1.313E-01,
2273,1.359E-01,
2315,1.492E-01,
2316,1.315E-01,
2317,1.355E-01,
2359,1.492E-01,
2360,1.318E-01,
2361,1.351E-01,
2403,1.492E-01,
2404,1.320E-01,
2405,1.348E-01,
2447,1.492E-01,
2448,1.322E-01,
2449,1.344E-01,
2491,1.492E-01,
2492,1.324E-01,
2493,1.340E-01,
2535,1.492E-01,
2536,1.327E-01,
2537,1.337E-01,
2579,1.492E-01,
2580,1.329E-01,
2581,1.333E-01,
2623,1.492E-01,
2624,1.331E-01,
2625,1.329E-01,
30,2.246E-01,
74,2.321E-01,
118,2.419E-01,
162,2.498E-01,
206,2.532E-01,
250,2.538E-01,
294,2.527E-01,
338,2.507E-01,
382,2.483E-01,
426,2.458E-01,
470,2.432E-01,
514,2.407E-01,
558,2.382E-01,
602,2.357E-01,
646,2.333E-01,
690,2.309E-01,
734,2.285E-01,
778,2.262E-01,
822,2.239E-01,
866,2.216E-01,
910,2.194E-01,
954,2.172E-01,
998,2.150E-01,
1042,2.128E-01,
1086,2.106E-01,
1130,2.084E-01,
1174,2.062E-01,
1218,2.041E-01,
1262,2.019E-01,
1306,1.997E-01,
31,3.091E-01,
32,4.790E-01,
33,5.133E-01,
34,5.455E-01,
35,5.420E-01,
75,3.199E-01,
76,4.328E-01,
77,4.989E-01,
78,5.042E-01,
79,5.145E-01,
119,3.355E-01,
120,4.227E-01,
121,4.600E-01,
122,4.665E-01,
123,4.769E-01,
163,3.396E-01,
164,4.191E-01,
165,4.582E-01,
166,4.672E-01,
167,4.745E-01,
207,3.397E-01,
208,4.167E-01,
209,4.553E-01,
210,4.653E-01,
211,4.741E-01,
251,3.379E-01,
252,4.151E-01,
253,4.568E-01,
254,4.672E-01,
255,4.743E-01,
295,3.352E-01,
296,4.134E-01,
297,4.568E-01,
298,4.670E-01,
299,4.734E-01,
339,3.323E-01,
340,4.111E-01,
341,4.557E-01,
342,4.656E-01,
343,4.714E-01,
383,3.292E-01,
384,4.083E-01,
385,4.533E-01,
386,4.631E-01,
387,4.687E-01,
427,3.261E-01,
428,4.051E-01,
429,4.502E-01,
430,4.600E-01,
431,4.656E-01,
471,3.229E-01,
472,4.016E-01,
473,4.466E-01,
474,4.566E-01,
475,4.623E-01,
515,3.198E-01,
516,3.981E-01,
517,4.429E-01,
518,4.529E-01,
519,4.587E-01,
559,3.167E-01,
560,3.945E-01,
561,4.391E-01,
562,4.491E-01,
563,4.550E-01,
603,3.137E-01,
604,3.910E-01,
605,4.353E-01,
606,4.453E-01,
607,4.512E-01,
647,3.106E-01,
648,3.875E-01,
649,4.316E-01,
650,4.415E-01,
651,4.473E-01,
691,3.076E-01,
692,3.840E-01,
693,4.277E-01,
694,4.376E-01,
695,4.433E-01,
735,3.046E-01,
736,3.804E-01,
737,4.239E-01,
738,4.336E-01,
739,4.393E-01,
779,3.016E-01,
780,3.768E-01,
781,4.200E-01,
782,4.296E-01,
783,4.352E-01,
823,2.987E-01,
824,3.732E-01,
825,4.160E-01,
826,4.255E-01,
827,4.311E-01,
867,2.957E-01,
868,3.696E-01,
869,4.120E-01,
870,4.214E-01,
871,4.269E-01,
911,2.927E-01,
912,3.660E-01,
913,4.080E-01,
914,4.173E-01,
915,4.227E-01,
955,2.898E-01,
956,3.623E-01,
957,4.039E-01,
958,4.132E-01,
959,4.185E-01,
999,2.868E-01,
1000,3.587E-01,
1001,3.998E-01,
1002,4.090E-01,
1003,4.143E-01,
1043,2.839E-01,
1044,3.550E-01,
1045,3.957E-01,
1046,4.048E-01,
1047,4.100E-01,
1087,2.810E-01,
1088,3.513E-01,
1089,3.916E-01,
1090,4.006E-01,
1091,4.058E-01,
1131,2.781E-01,
1132,3.476E-01,
1133,3.875E-01,
1134,3.964E-01,
1135,4.015E-01,
1175,2.751E-01,
1176,3.440E-01,
1177,3.834E-01,
1178,3.922E-01,
1179,3.973E-01,
1219,2.722E-01,
1220,3.403E-01,
1221,3.793E-01,
1222,3.880E-01,
1223,3.930E-01,
1263,2.693E-01,
1264,3.366E-01,
1265,3.752E-01,
1266,3.838E-01,
1267,3.888E-01,
1307,2.664E-01,
1308,3.330E-01,
1309,3.712E-01,
1310,3.796E-01,
1311,3.846E-01,
36,4.865E-01,
80,5.062E-01,
124,4.936E-01,
168,4.886E-01,
212,4.860E-01,
256,4.831E-01,
300,4.797E-01,
344,4.762E-01,
388,4.725E-01,
432,4.689E-01,
476,4.652E-01,
520,4.614E-01,
564,4.575E-01,
608,4.536E-01,
652,4.496E-01,
696,4.455E-01,
740,4.414E-01,
784,4.372E-01,
828,4.330E-01,
872,4.288E-01,
916,4.245E-01,
960,4.203E-01,
1004,4.160E-01,
1048,4.118E-01,
1092,4.075E-01,
1136,4.032E-01,
1180,3.990E-01,
1224,3.947E-01,
1268,3.904E-01,
1312,3.862E-01,
1350,1.975E-01,
1394,1.954E-01,
1438,1.932E-01,
1482,1.910E-01,
1526,1.888E-01,
1570,1.866E-01,
1614,1.845E-01,
1658,1.823E-01,
1702,1.801E-01,
1746,1.779E-01,
1790,1.757E-01,
1834,1.735E-01,
1878,1.713E-01,
1922,1.692E-01,
1966,1.670E-01,
2010,1.648E-01,
2054,1.626E-01,
2098,1.604E-01,
2142,1.582E-01,
2186,1.560E-01,
2230,1.538E-01,
2274,1.516E-01,
2318,1.494E-01,
2362,1.472E-01,
2406,1.450E-01,
2450,1.429E-01,
2494,1.407E-01,
2538,1.385E-01,
2582,1.368E-01,
2626,1.363E-01,
1351,2.635E-01,
1352,3.293E-01,
1353,3.671E-01,
1354,3.755E-01,
1355,3.803E-01,
1395,2.605E-01,
1396,3.256E-01,
1397,3.630E-01,
1398,3.713E-01,
1399,3.761E-01,
1439,2.576E-01,
1440,3.220E-01,
1441,3.589E-01,
1442,3.671E-01,
1443,3.718E-01,
1483,2.547E-01,
1484,3.183E-01,
1485,3.548E-01,
1486,3.629E-01,
1487,3.676E-01,
1527,2.518E-01,
1528,3.147E-01,
1529,3.507E-01,
1530,3.587E-01,
1531,3.634E-01,
1571,2.489E-01,
1572,3.110E-01,
1573,3.466E-01,
1574,3.546E-01,
1575,3.591E-01,
1615,2.459E-01,
1616,3.073E-01,
1617,3.426E-01,
1618,3.504E-01,
1619,3.549E-01,
1659,2.430E-01,
1660,3.037E-01,
1661,3.385E-01,
1662,3.462E-01,
1663,3.507E-01,
1703,2.401E-01,
1704,3.000E-01,
1705,3.344E-01,
1706,3.420E-01,
1707,3.464E-01,
1747,2.372E-01,
1748,2.964E-01,
1749,3.303E-01,
1750,3.379E-01,
1751,3.422E-01,
1791,2.343E-01,
1792,2.927E-01,
1793,3.262E-01,
1794,3.337E-01,
1795,3.380E-01,
1835,2.313E-01,
1836,2.891E-01,
1837,3.222E-01,
1838,3.295E-01,
1839,3.338E-01,
1879,2.284E-01,
1880,2.854E-01,
1881,3.181E-01,
1882,3.254E-01,
1883,3.296E-01,
1923,2.255E-01,
1924,2.818E-01,
1925,3.140E-01,
1926,3.212E-01,
1927,3.253E-01,
1967,2.226E-01,
1968,2.781E-01,
1969,3.100E-01,
1970,3.170E-01,
1971,3.211E-01,
2011,2.197E-01,
2012,2.745E-01,
2013,3.059E-01,
2014,3.129E-01,
2015,3.169E-01,
2055,2.167E-01,
2056,2.708E-01,
2057,3.018E-01,
2058,3.087E-01,
2059,3.127E-01,
2099,2.138E-01,
2100,2.672E-01,
2101,2.977E-01,
2102,3.045E-01,
2103,3.084E-01,
2143,2.109E-01,
2144,2.635E-01,
2145,2.937E-01,
2146,3.004E-01,
2147,3.042E-01,
2187,2.080E-01,
2188,2.598E-01,
2189,2.896E-01,
2190,2.962E-01,
2191,3.000E-01,
2231,2.050E-01,
2232,2.562E-01,
2233,2.855E-01,
2234,2.920E-01,
2235,2.958E-01,
2275,2.021E-01,
2276,2.525E-01,
2277,2.814E-01,
2278,2.879E-01,
2279,2.916E-01,
2319,1.992E-01,
2320,2.489E-01,
2321,2.774E-01,
2322,2.837E-01,
2323,2.873E-01,
2363,1.963E-01,
2364,2.452E-01,
2365,2.733E-01,
2366,2.795E-01,
2367,2.831E-01,
2407,1.934E-01,
2408,2.416E-01,
2409,2.692E-01,
2410,2.754E-01,
2411,2.789E-01,
2451,1.904E-01,
2452,2.379E-01,
2453,2.652E-01,
2454,2.712E-01,
2455,2.747E-01,
2495,1.875E-01,
2496,2.343E-01,
2497,2.611E-01,
2498,2.670E-01,
2499,2.704E-01,
2539,1.846E-01,
2540,2.306E-01,
2541,2.570E-01,
2542,2.629E-01,
2543,2.662E-01,
2583,1.817E-01,
2584,2.270E-01,
2585,2.529E-01,
2586,2.587E-01,
2587,2.620E-01,
2627,1.787E-01,
2628,2.233E-01,
2629,2.489E-01,
2630,2.545E-01,
2631,2.578E-01,
1356,3.819E-01,
1400,3.776E-01,
1444,3.734E-01,
1488,3.691E-01,
1532,3.649E-01,
1576,3.606E-01,
1620,3.564E-01,
1664,3.521E-01,
1708,3.479E-01,
1752,3.436E-01,
1796,3.394E-01,
1840,3.351E-01,
1884,3.309E-01,
1928,3.266E-01,
1972,3.224E-01,
2016,3.181E-01,
2060,3.139E-01,
2104,3.096E-01,
2148,3.054E-01,
2192,3.011E-01,
2236,2.969E-01,
2280,2.927E-01,
2324,2.884E-01,
2368,2.842E-01,
2412,2.799E-01,
2456,2.757E-01,
2500,2.714E-01,
2544,2.672E-01,
2588,2.629E-01,
2632,2.587E-01,
37,4.407E-01,
81,4.741E-01,
125,4.954E-01,
169,5.000E-01,
213,4.985E-01,
257,4.941E-01,
301,4.887E-01,
345,4.831E-01,
389,4.778E-01,
433,4.728E-01,
477,4.681E-01,
521,4.637E-01,
565,4.593E-01,
609,4.550E-01,
653,4.507E-01,
697,4.464E-01,
741,4.422E-01,
785,4.379E-01,
829,4.336E-01,
873,4.293E-01,
917,4.251E-01,
961,4.208E-01,
1005,4.165E-01,
1049,4.123E-01,
1093,4.080E-01,
1137,4.037E-01,
1181,3.994E-01,
1225,3.952E-01,
1269,3.909E-01,
1313,3.866E-01,
1357,3.823E-01,
1401,3.781E-01,
1445,3.738E-01,
1489,3.695E-01,
1533,3.652E-01,
1577,3.610E-01,
1621,3.567E-01,
1665,3.524E-01,
1709,3.482E-01,
1753,3.439E-01,
1797,3.396E-01,
1841,3.354E-01,
1885,3.311E-01,
1929,3.269E-01,
1973,3.226E-01,
2017,3.183E-01,
2061,3.141E-01,
2105,3.098E-01,
2149,3.055E-01,
2193,3.013E-01,
2237,2.970E-01,
2281,2.928E-01,
2325,2.885E-01,
2369,2.842E-01,
2413,2.800E-01,
2457,2.757E-01,
2501,2.715E-01,
2545,2.672E-01,
2589,2.629E-01,
2633,2.587E-01,
2667,1.492E-01,
2668,1.333E-01,
2669,1.326E-01,
2711,1.492E-01,
2712,1.336E-01,
2713,1.322E-01,
2755,1.492E-01,
2756,1.338E-01,
2757,1.319E-01,
2799,1.492E-01,
2800,1.340E-01,
2801,1.315E-01,
2843,1.492E-01,
2844,1.342E-01,
2845,1.311E-01,
2887,1.492E-01,
2888,1.345E-01,
2889,1.308E-01,
2931,1.492E-01,
2932,1.347E-01,
2933,1.304E-01,
2975,1.492E-01,
2976,1.349E-01,
2977,1.300E-01,
3019,1.492E-01,
3020,1.351E-01,
3021,1.297E-01,
3063,1.492E-01,
3064,1.354E-01,
3065,1.293E-01,
3107,1.492E-01,
3108,1.356E-01,
3109,1.289E-01,
3151,1.492E-01,
3152,1.358E-01,
3153,1.286E-01,
3195,1.492E-01,
3196,1.360E-01,
3197,1.282E-01,
3239,1.492E-01,
3240,1.363E-01,
3241,1.278E-01,
3283,1.492E-01,
3284,1.365E-01,
3285,1.275E-01,
3327,1.492E-01,
3328,1.367E-01,
3329,1.271E-01,
3371,1.492E-01,
3372,1.369E-01,
3373,1.267E-01,
3415,1.492E-01,
3416,1.372E-01,
3417,1.264E-01,
3459,1.492E-01,
3460,1.374E-01,
3461,1.260E-01,
3503,1.492E-01,
3504,1.376E-01,
3505,1.256E-01,
3547,1.492E-01,
3548,1.378E-01,
3549,1.253E-01,
3591,1.492E-01,
3592,1.380E-01,
3593,1.249E-01,
3635,1.492E-01,
3636,1.382E-01,
3637,1.245E-01,
3679,1.492E-01,
3680,1.384E-01,
3681,1.241E-01,
3723,1.492E-01,
3724,1.387E-01,
3725,1.238E-01,
3767,1.492E-01,
3768,1.389E-01,
3769,1.234E-01,
3811,1.492E-01,
3812,1.391E-01,
3813,1.238E-01,
3855,1.492E-01,
3856,1.393E-01,
3857,1.242E-01,
3899,1.491E-01,
3900,1.395E-01,
3901,1.246E-01,
3943,1.491E-01,
3944,1.397E-01,
3945,1.250E-01,
3987,1.491E-01,
3988,1.398E-01,
3989,1.254E-01,
4031,1.491E-01,
4032,1.400E-01,
4033,1.258E-01,
4075,1.491E-01,
4076,1.402E-01,
4077,1.262E-01,
4119,1.490E-01,
4120,1.404E-01,
4121,1.266E-01,
4163,1.490E-01,
4164,1.406E-01,
4165,1.270E-01,
4207,1.490E-01,
4208,1.407E-01,
4209,1.274E-01,
4251,1.489E-01,
4252,1.409E-01,
4253,1.278E-01,
4295,1.489E-01,
4296,1.410E-01,
4297,1.282E-01,
4339,1.489E-01,
4340,1.412E-01,
4341,1.286E-01,
4383,1.488E-01,
4384,1.413E-01,
4385,1.289E-01,
4427,1.487E-01,
4428,1.414E-01,
4429,1.293E-01,
4471,1.486E-01,
4472,1.415E-01,
4473,1.296E-01,
4515,1.485E-01,
4516,1.416E-01,
4517,1.299E-01,
4559,1.483E-01,
4560,1.416E-01,
4561,1.301E-01,
4603,1.481E-01,
4604,1.416E-01,
4605,1.304E-01,
4647,1.478E-01,
4648,1.415E-01,
4649,1.305E-01,
4691,1.475E-01,
4692,1.413E-01,
4693,1.306E-01,
4735,1.470E-01,
4736,1.410E-01,
4737,1.306E-01,
4779,1.463E-01,
4780,1.405E-01,
4781,1.305E-01,
4823,1.455E-01,
4824,1.400E-01,
4825,1.303E-01,
4867,1.445E-01,
4868,1.392E-01,
4869,1.300E-01,
4911,1.432E-01,
4912,1.382E-01,
4913,1.297E-01,
4955,1.416E-01,
4956,1.370E-01,
4957,1.292E-01,
4999,1.396E-01,
5000,1.357E-01,
5001,1.288E-01,
5043,1.375E-01,
5044,1.342E-01,
5045,1.284E-01,
5087,1.354E-01,
5088,1.328E-01,
5089,1.280E-01,
5131,1.338E-01,
5132,1.314E-01,
5133,1.274E-01,
5175,1.328E-01,
5176,1.305E-01,
5177,1.266E-01,
5219,1.328E-01,
5220,1.302E-01,
5221,1.260E-01,
5263,1.335E-01,
5264,1.307E-01,
5265,1.259E-01,
2670,1.358E-01,
2714,1.352E-01,
2758,1.347E-01,
2802,1.341E-01,
2846,1.336E-01,
2890,1.330E-01,
2934,1.325E-01,
2978,1.319E-01,
3022,1.314E-01,
3066,1.308E-01,
3110,1.303E-01,
3154,1.297E-01,
3198,1.292E-01,
3242,1.286E-01,
3286,1.281E-01,
3330,1.275E-01,
3374,1.270E-01,
3418,1.264E-01,
3462,1.259E-01,
3506,1.253E-01,
3550,1.248E-01,
3594,1.242E-01,
3638,1.237E-01,
3682,1.231E-01,
3726,1.226E-01,
3770,1.220E-01,
3814,1.215E-01,
3858,1.209E-01,
3902,1.203E-01,
3946,1.198E-01,
2671,1.758E-01,
2672,2.197E-01,
2673,2.448E-01,
2674,2.504E-01,
2675,2.536E-01,
2715,1.729E-01,
2716,2.160E-01,
2717,2.407E-01,
2718,2.462E-01,
2719,2.493E-01,
2759,1.700E-01,
2760,2.124E-01,
2761,2.367E-01,
2762,2.420E-01,
2763,2.451E-01,
2803,1.670E-01,
2804,2.087E-01,
2805,2.326E-01,
2806,2.379E-01,
2807,2.409E-01,
2847,1.641E-01,
2848,2.051E-01,
2849,2.285E-01,
2850,2.337E-01,
2851,2.367E-01,
2891,1.612E-01,
2892,2.014E-01,
2893,2.244E-01,
2894,2.295E-01,
2895,2.325E-01,
2935,1.583E-01,
2936,1.977E-01,
2937,2.204E-01,
2938,2.254E-01,
2939,2.282E-01,
2979,1.553E-01,
2980,1.941E-01,
2981,2.163E-01,
2982,2.212E-01,
2983,2.240E-01,
3023,1.524E-01,
3024,1.904E-01,
3025,2.122E-01,
3026,2.170E-01,
3027,2.198E-01,
3067,1.495E-01,
3068,1.868E-01,
3069,2.082E-01,
3070,2.129E-01,
3071,2.156E-01,
3111,1.466E-01,
3112,1.831E-01,
3113,2.041E-01,
3114,2.087E-01,
3115,2.114E-01,
3155,1.437E-01,
3156,1.795E-01,
3157,2.000E-01,
3158,2.046E-01,
3159,2.071E-01,
3199,1.407E-01,
3200,1.758E-01,
3201,1.960E-01,
3202,2.004E-01,
3203,2.029E-01,
3243,1.378E-01,
3244,1.722E-01,
3245,1.919E-01,
3246,1.962E-01,
3247,1.987E-01,
3287,1.349E-01,
3288,1.685E-01,
3289,1.878E-01,
3290,1.921E-01,
3291,1.945E-01,
3331,1.320E-01,
3332,1.649E-01,
3333,1.837E-01,
3334,1.879E-01,
3335,1.903E-01,
3375,1.290E-01,
3376,1.612E-01,
3377,1.797E-01,
3378,1.837E-01,
3379,1.860E-01,
3419,1.261E-01,
3420,1.576E-01,
3421,1.756E-01,
3422,1.796E-01,
3423,1.818E-01,
3463,1.232E-01,
3464,1.539E-01,
3465,1.715E-01,
3466,1.754E-01,
3467,1.776E-01,
3507,1.220E-01,
3508,1.503E-01,
3509,1.675E-01,
3510,1.713E-01,
3511,1.734E-01,
3551,1.212E-01,
3552,1.466E-01,
3553,1.634E-01,
3554,1.671E-01,
3555,1.692E-01,
3595,1.205E-01,
3596,1.430E-01,
3597,1.593E-01,
3598,1.629E-01,
3599,1.650E-01,
3639,1.198E-01,
3640,1.393E-01,
3641,1.553E-01,
3642,1.588E-01,
3643,1.607E-01,
3683,1.190E-01,
3684,1.357E-01,
3685,1.512E-01,
3686,1.546E-01,
3687,1.565E-01,
3727,1.183E-01,
3728,1.321E-01,
3729,1.472E-01,
3730,1.505E-01,
3731,1.523E-01,
3771,1.176E-01,
3772,1.284E-01,
3773,1.431E-01,
3774,1.463E-01,
3775,1.481E-01,
3815,1.168E-01,
3816,1.248E-01,
3817,1.390E-01,
3818,1.422E-01,
3819,1.439E-01,
3859,1.161E-01,
3860,1.211E-01,
3861,1.350E-01,
3862,1.380E-01,
3863,1.397E-01,
3903,1.153E-01,
3904,1.175E-01,
3905,1.309E-01,
3906,1.339E-01,
3907,1.355E-01,
3947,1.146E-01,
3948,1.139E-01,
3949,1.269E-01,
3950,1.297E-01,
3951,1.313E-01,
2676,2.544E-01,
2720,2.502E-01,
2764,2.460E-01,
2808,2.417E-01,
2852,2.375E-01,
2896,2.332E-01,
2940,2.290E-01,
2984,2.247E-01,
3028,2.205E-01,
3072,2.162E-01,
3116,2.120E-01,
3160,2.078E-01,
3204,2.035E-01,
3248,1.993E-01,
3292,1.950E-01,
3336,1.908E-01,
3380,1.865E-01,
3424,1.823E-01,
3468,1.781E-01,
3512,1.738E-01,
3556,1.696E-01,
3600,1.653E-01,
3644,1.611E-01,
3688,1.569E-01,
3732,1.526E-01,
3776,1.484E-01,
3820,1.441E-01,
3864,1.399E-01,
3908,1.357E-01,
3952,1.314E-01,
3990,1.192E-01,
4034,1.187E-01,
4078,1.181E-01,
4122,1.175E-01,
4166,1.170E-01,
4210,1.164E-01,
4254,1.158E-01,
4298,1.153E-01,
4342,1.147E-01,
4386,1.142E-01,
4430,1.136E-01,
4474,1.131E-01,
4518,1.134E-01,
4562,1.140E-01,
4606,1.145E-01,
4650,1.150E-01,
4694,1.155E-01,
4738,1.159E-01,
4782,1.162E-01,
4826,1.165E-01,
4870,1.168E-01,
4914,1.172E-01,
4958,1.177E-01,
5002,1.184E-01,
5046,1.192E-01,
5090,1.202E-01,
5134,1.211E-01,
5178,1.213E-01,
5222,1.205E-01,
5266,1.196E-01,
3991,1.139E-01,
3992,1.102E-01,
3993,1.228E-01,
3994,1.256E-01,
3995,1.271E-01,
4035,1.131E-01,
4036,1.066E-01,
4037,1.188E-01,
4038,1.214E-01,
4039,1.229E-01,
4079,1.124E-01,
4080,1.037E-01,
4081,1.147E-01,
4082,1.173E-01,
4083,1.187E-01,
4123,1.116E-01,
4124,1.028E-01,
4125,1.107E-01,
4126,1.131E-01,
4127,1.145E-01,
4167,1.109E-01,
4168,1.019E-01,
4169,1.066E-01,
4170,1.090E-01,
4171,1.103E-01,
4211,1.102E-01,
4212,1.010E-01,
4213,1.026E-01,
4214,1.049E-01,
4215,1.061E-01,
4255,1.095E-01,
4256,1.001E-01,
4257,9.856E-02,
4258,1.007E-01,
4259,1.019E-01,
4299,1.087E-01,
4300,9.920E-02,
4301,9.452E-02,
4302,9.659E-02,
4303,9.770E-02,
4343,1.080E-01,
4344,9.832E-02,
4345,9.238E-02,
4346,9.245E-02,
4347,9.350E-02,
4387,1.073E-01,
4388,9.746E-02,
4389,9.144E-02,
4390,8.927E-02,
4391,8.929E-02,
4431,1.066E-01,
4432,9.661E-02,
4433,9.050E-02,
4434,8.831E-02,
4435,8.519E-02,
4475,1.060E-01,
4476,9.577E-02,
4477,8.957E-02,
4478,8.737E-02,
4479,8.422E-02,
4519,1.053E-01,
4520,9.494E-02,
4521,8.866E-02,
4522,8.642E-02,
4523,8.324E-02,
4563,1.046E-01,
4564,9.412E-02,
4565,8.775E-02,
4566,8.549E-02,
4567,8.228E-02,
4607,1.040E-01,
4608,9.331E-02,
4609,8.684E-02,
4610,8.456E-02,
4611,8.132E-02,
4651,1.034E-01,
4652,9.251E-02,
4653,8.595E-02,
4654,8.364E-02,
4655,8.036E-02,
4695,1.028E-01,
4696,9.171E-02,
4697,8.505E-02,
4698,8.272E-02,
4699,7.941E-02,
4739,1.021E-01,
4740,9.092E-02,
4741,8.416E-02,
4742,8.180E-02,
4743,7.846E-02,
4783,1.015E-01,
4784,9.013E-02,
4785,8.328E-02,
4786,8.089E-02,
4787,7.752E-02,
4827,1.009E-01,
4828,8.934E-02,
4829,8.240E-02,
4830,7.999E-02,
4831,7.658E-02,
4871,1.003E-01,
4872,8.857E-02,
4873,8.153E-02,
4874,7.908E-02,
4875,7.564E-02,
4915,1.005E-01,
4916,8.783E-02,
4917,8.067E-02,
4918,7.818E-02,
4919,7.465E-02,
4959,1.018E-01,
4960,8.714E-02,
4961,7.980E-02,
4962,7.721E-02,
4963,7.362E-02,
5003,1.035E-01,
5004,8.653E-02,
5005,7.892E-02,
5006,7.621E-02,
5007,7.243E-02,
5047,1.055E-01,
5048,8.605E-02,
5049,7.799E-02,
5050,7.505E-02,
5051,7.108E-02,
5091,1.079E-01,
5092,8.882E-02,
5093,7.878E-02,
5094,7.555E-02,
5095,7.054E-02,
5135,1.105E-01,
5136,9.245E-02,
5137,8.183E-02,
5138,7.764E-02,
5139,7.169E-02,
5179,1.132E-01,
5180,9.653E-02,
5181,8.543E-02,
5182,8.074E-02,
5183,7.381E-02,
5223,1.145E-01,
5224,1.029E-01,
5225,8.930E-02,
5226,8.243E-02,
5227,7.310E-02,
5267,1.125E-01,
5268,1.069E-01,
5269,1.003E-01,
5270,8.959E-02,
5271,7.301E-02,
3996,1.272E-01,
4040,1.230E-01,
4084,1.187E-01,
4128,1.145E-01,
4172,1.103E-01,
4216,1.061E-01,
4260,1.018E-01,
4304,9.759E-02,
4348,9.335E-02,
4392,8.911E-02,
4436,8.486E-02,
4480,8.061E-02,
4524,7.635E-02,
4568,7.239E-02,
4612,7.137E-02,
4656,7.036E-02,
4700,6.936E-02,
4744,6.835E-02,
4788,6.735E-02,
4832,6.633E-02,
4876,6.527E-02,
4920,6.414E-02,
4964,6.286E-02,
5008,6.134E-02,
5052,5.947E-02,
5096,5.710E-02,
5140,5.425E-02,
5184,5.304E-02,
5228,4.958E-02,
5272,5.208E-02,
2677,2.544E-01,
2721,2.502E-01,
2765,2.459E-01,
2809,2.416E-01,
2853,2.374E-01,
2897,2.331E-01,
2941,2.289E-01,
2985,2.246E-01,
3029,2.203E-01,
3073,2.161E-01,
3117,2.118E-01,
3161,2.076E-01,
3205,2.033E-01,
3249,1.990E-01,
3293,1.948E-01,
3337,1.905E-01,
3381,1.863E-01,
3425,1.820E-01,
3469,1.777E-01,
3513,1.735E-01,
3557,1.692E-01,
3601,1.650E-01,
3645,1.607E-01,
3689,1.565E-01,
3733,1.522E-01,
3777,1.479E-01,
3821,1.437E-01,
3865,1.394E-01,
3909,1.352E-01,
3953,1.309E-01,
3997,1.267E-01,
4041,1.224E-01,
4085,1.181E-01,
4129,1.139E-01,
4173,1.096E-01,
4217,1.054E-01,
4261,1.011E-01,
4305,9.682E-02,
4349,9.255E-02,
4393,8.828E-02,
4437,8.400E-02,
4481,7.971E-02,
4525,7.541E-02,
4569,7.111E-02,
4613,6.680E-02,
4657,6.247E-02,
4701,5.814E-02,
4745,5.379E-02,
4789,5.219E-02,
4833,5.109E-02,
4877,4.995E-02,
4921,4.871E-02,
4965,4.730E-02,
5009,4.563E-02,
5053,4.357E-02,
5097,4.103E-02,
5141,3.802E-02,
5185,3.646E-02,
5229,3.658E-02,
5273,3.817E-02,
2,2.252E-01,
3,1.475E-01,
4,7.147E-02,
46,2.328E-01,
47,1.520E-01,
48,7.347E-02,
90,2.443E-01,
91,1.569E-01,
92,8.439E-02,
134,2.540E-01,
135,1.629E-01,
136,9.826E-02,
178,2.579E-01,
179,1.681E-01,
180,1.020E-01,
222,2.580E-01,
223,1.706E-01,
224,9.754E-02,
266,2.562E-01,
267,1.710E-01,
268,9.307E-02,
310,2.535E-01,
311,1.701E-01,
312,8.996E-02,
354,2.505E-01,
355,1.685E-01,
356,8.773E-02,
398,2.475E-01,
399,1.666E-01,
400,8.629E-02,
442,2.447E-01,
443,1.646E-01,
444,8.526E-02,
486,2.420E-01,
487,1.627E-01,
488,8.445E-02,
530,2.395E-01,
531,1.609E-01,
532,8.377E-02,
574,2.371E-01,
575,1.591E-01,
576,8.316E-02,
618,2.348E-01,
619,1.574E-01,
620,8.263E-02,
662,2.325E-01,
663,1.557E-01,
664,8.216E-02,
706,2.303E-01,
707,1.541E-01,
708,8.174E-02,
750,2.281E-01,
751,1.525E-01,
752,8.136E-02,
794,2.258E-01,
795,1.509E-01,
796,8.103E-02,
838,2.236E-01,
839,1.494E-01,
840,8.072E-02,
882,2.213E-01,
883,1.478E-01,
884,8.044E-02,
926,2.191E-01,
927,1.463E-01,
928,8.018E-02,
970,2.169E-01,
971,1.448E-01,
972,7.994E-02,
1014,2.146E-01,
1015,1.433E-01,
1016,7.971E-02,
1058,2.124E-01,
1059,1.417E-01,
1060,7.948E-02,
1102,2.101E-01,
1103,1.402E-01,
1104,7.927E-02,
1146,2.079E-01,
1147,1.387E-01,
1148,7.907E-02,
1190,2.056E-01,
1191,1.372E-01,
1192,7.887E-02,
1234,2.034E-01,
1235,1.357E-01,
1236,7.868E-02,
1278,2.012E-01,
1279,1.342E-01,
1280,7.850E-02,
1322,1.989E-01,
1323,1.327E-01,
1324,7.832E-02,
1366,1.967E-01,
1367,1.312E-01,
1368,7.814E-02,
1410,1.944E-01,
1411,1.297E-01,
1412,7.796E-02,
1454,1.922E-01,
1455,1.282E-01,
1456,7.779E-02,
1498,1.900E-01,
1499,1.267E-01,
1500,7.761E-02,
1542,1.877E-01,
1543,1.252E-01,
1544,7.744E-02,
1586,1.855E-01,
1587,1.237E-01,
1588,7.726E-02,
1630,1.832E-01,
1631,1.222E-01,
1632,7.709E-02,
1674,1.810E-01,
1675,1.207E-01,
1676,7.691E-02,
1718,1.788E-01,
1719,1.192E-01,
1720,7.673E-02,
1762,1.765E-01,
1763,1.177E-01,
1764,7.666E-02,
1806,1.743E-01,
1807,1.162E-01,
1808,7.688E-02,
1850,1.720E-01,
1851,1.147E-01,
1852,7.709E-02,
1894,1.698E-01,
1895,1.132E-01,
1896,7.731E-02,
1938,1.676E-01,
1939,1.117E-01,
1940,7.753E-02,
1982,1.653E-01,
1983,1.102E-01,
1984,7.775E-02,
2026,1.631E-01,
2027,1.087E-01,
2028,7.797E-02,
2070,1.609E-01,
2071,1.072E-01,
2072,7.820E-02,
2114,1.586E-01,
2115,1.057E-01,
2116,7.842E-02,
2158,1.564E-01,
2159,1.042E-01,
2160,7.864E-02,
2202,1.541E-01,
2203,1.028E-01,
2204,7.887E-02,
2246,1.519E-01,
2247,1.013E-01,
2248,7.910E-02,
2290,1.497E-01,
2291,9.977E-02,
2292,7.932E-02,
2334,1.474E-01,
2335,9.828E-02,
2336,7.955E-02,
2378,1.452E-01,
2379,9.679E-02,
2380,7.978E-02,
2422,1.429E-01,
2423,9.530E-02,
2424,8.001E-02,
2466,1.407E-01,
2467,9.381E-02,
2468,8.024E-02,
2510,1.385E-01,
2511,9.232E-02,
2512,8.047E-02,
2554,1.362E-01,
2555,9.082E-02,
2556,8.070E-02,
2598,1.340E-01,
2599,8.933E-02,
2600,8.093E-02,
38,4.380E-01,
82,4.577E-01,
126,4.826E-01,
170,4.991E-01,
214,5.029E-01,
258,5.004E-01,
302,4.951E-01,
346,4.887E-01,
390,4.824E-01,
434,4.765E-01,
478,4.709E-01,
522,4.658E-01,
566,4.609E-01,
610,4.562E-01,
654,4.517E-01,
698,4.472E-01,
742,4.428E-01,
786,4.385E-01,
830,4.341E-01,
874,4.298E-01,
918,4.256E-01,
962,4.213E-01,
1006,4.170E-01,
1050,4.127E-01,
1094,4.084E-01,
1138,4.041E-01,
1182,3.999E-01,
1226,3.956E-01,
1270,3.913E-01,
1314,3.870E-01,
1358,3.827E-01,
1402,3.785E-01,
1446,3.742E-01,
1490,3.699E-01,
1534,3.656E-01,
1578,3.613E-01,
1622,3.571E-01,
1666,3.528E-01,
1710,3.485E-01,
1754,3.442E-01,
1798,3.399E-01,
1842,3.357E-01,
1886,3.314E-01,
1930,3.271E-01,
1974,3.228E-01,
2018,3.185E-01,
2062,3.143E-01,
2106,3.100E-01,
2150,3.057E-01,
2194,3.014E-01,
2238,2.972E-01,
2282,2.929E-01,
2326,2.886E-01,
2370,2.843E-01,
2414,2.801E-01,
2458,2.758E-01,
2502,2.715E-01,
2546,2.672E-01,
2590,2.630E-01,
2634,2.587E-01,
1,3.049E-01,
45,3.288E-01,
89,3.452E-01,
133,3.474E-01,
177,3.450E-01,
221,3.414E-01,
265,3.375E-01,
309,3.338E-01,
353,3.303E-01,
397,3.270E-01,
441,3.239E-01,
485,3.210E-01,
529,3.181E-01,
573,3.152E-01,
617,3.123E-01,
661,3.095E-01,
705,3.066E-01,
749,3.037E-01,
793,3.007E-01,
837,2.978E-01,
881,2.949E-01,
925,2.919E-01,
969,2.889E-01,
1013,2.860E-01,
1057,2.830E-01,
1101,2.800E-01,
1145,2.771E-01,
1189,2.741E-01,
1233,2.711E-01,
1277,2.681E-01,
39,4.370E-01,
83,4.682E-01,
127,4.902E-01,
171,4.990E-01,
215,5.017E-01,
259,4.995E-01,
303,4.948E-01,
347,4.891E-01,
391,4.831E-01,
435,4.773E-01,
479,4.718E-01,
523,4.666E-01,
567,4.616E-01,
611,4.569E-01,
655,4.523E-01,
699,4.478E-01,
743,4.433E-01,
787,4.390E-01,
831,4.346E-01,
875,4.303E-01,
919,4.260E-01,
963,4.217E-01,
1007,4.174E-01,
1051,4.131E-01,
1095,4.089E-01,
1139,4.046E-01,
1183,4.003E-01,
1227,3.960E-01,
1271,3.917E-01,
1315,3.874E-01,
40,5.157E-01,
41,5.357E-01,
42,5.535E-01,
43,5.338E-01,
44,4.314E-01,
84,5.030E-01,
85,5.205E-01,
86,5.101E-01,
87,5.051E-01,
88,4.450E-01,
128,4.941E-01,
129,4.815E-01,
130,4.716E-01,
131,4.655E-01,
132,4.311E-01,
172,4.930E-01,
173,4.818E-01,
174,4.718E-01,
175,4.603E-01,
176,4.240E-01,
216,4.922E-01,
217,4.797E-01,
218,4.700E-01,
219,4.592E-01,
220,4.202E-01,
260,4.906E-01,
261,4.808E-01,
262,4.721E-01,
263,4.603E-01,
264,4.177E-01,
304,4.875E-01,
305,4.796E-01,
306,4.722E-01,
307,4.609E-01,
308,4.156E-01,
348,4.836E-01,
349,4.776E-01,
350,4.709E-01,
351,4.600E-01,
352,4.133E-01,
392,4.794E-01,
393,4.747E-01,
394,4.685E-01,
395,4.578E-01,
396,4.106E-01,
436,4.749E-01,
437,4.713E-01,
438,4.652E-01,
439,4.547E-01,
440,4.076E-01,
480,4.704E-01,
481,4.675E-01,
482,4.616E-01,
483,4.511E-01,
484,4.043E-01,
524,4.658E-01,
525,4.635E-01,
526,4.576E-01,
527,4.473E-01,
528,4.009E-01,
568,4.614E-01,
569,4.594E-01,
570,4.535E-01,
571,4.433E-01,
572,3.974E-01,
612,4.569E-01,
613,4.552E-01,
614,4.494E-01,
615,4.392E-01,
616,3.938E-01,
656,4.525E-01,
657,4.510E-01,
658,4.452E-01,
659,4.351E-01,
660,3.902E-01,
700,4.481E-01,
701,4.467E-01,
702,4.410E-01,
703,4.311E-01,
704,3.866E-01,
744,4.438E-01,
745,4.424E-01,
746,4.368E-01,
747,4.270E-01,
748,3.830E-01,
788,4.394E-01,
789,4.381E-01,
790,4.326E-01,
791,4.229E-01,
792,3.794E-01,
832,4.351E-01,
833,4.338E-01,
834,4.283E-01,
835,4.188E-01,
836,3.757E-01,
876,4.308E-01,
877,4.295E-01,
878,4.241E-01,
879,4.146E-01,
880,3.720E-01,
920,4.265E-01,
921,4.252E-01,
922,4.199E-01,
923,4.105E-01,
924,3.683E-01,
964,4.222E-01,
965,4.209E-01,
966,4.157E-01,
967,4.064E-01,
968,3.647E-01,
1008,4.179E-01,
1009,4.167E-01,
1010,4.114E-01,
1011,4.023E-01,
1012,3.610E-01,
1052,4.136E-01,
1053,4.124E-01,
1054,4.072E-01,
1055,3.981E-01,
1056,3.573E-01,
1096,4.093E-01,
1097,4.081E-01,
1098,4.030E-01,
1099,3.940E-01,
1100,3.536E-01,
1140,4.050E-01,
1141,4.038E-01,
1142,3.988E-01,
1143,3.899E-01,
1144,3.499E-01,
1184,4.007E-01,
1185,3.995E-01,
1186,3.945E-01,
1187,3.858E-01,
1188,3.462E-01,
1228,3.964E-01,
1229,3.953E-01,
1230,3.903E-01,
1231,3.816E-01,
1232,3.424E-01,
1272,3.921E-01,
1273,3.910E-01,
1274,3.861E-01,
1275,3.775E-01,
1276,3.387E-01,
1316,3.878E-01,
1317,3.867E-01,
1318,3.819E-01,
1319,3.734E-01,
1320,3.350E-01,
1321,2.652E-01,
1365,2.622E-01,
1409,2.592E-01,
1453,2.562E-01,
1497,2.532E-01,
1541,2.503E-01,
1585,2.473E-01,
1629,2.443E-01,
1673,2.413E-01,
1717,2.383E-01,
1761,2.353E-01,
1805,2.324E-01,
1849,2.294E-01,
1893,2.264E-01,
1937,2.234E-01,
1981,2.204E-01,
2025,2.174E-01,
2069,2.145E-01,
2113,2.115E-01,
2157,2.085E-01,
2201,2.055E-01,
2245,2.025E-01,
2289,1.995E-01,
2333,1.966E-01,
2377,1.936E-01,
2421,1.906E-01,
2465,1.876E-01,
2509,1.846E-01,
2553,1.816E-01,
2597,1.787E-01,
1359,3.831E-01,
1403,3.789E-01,
1447,3.746E-01,
1491,3.703E-01,
1535,3.660E-01,
1579,3.617E-01,
1623,3.574E-01,
1667,3.531E-01,
1711,3.488E-01,
1755,3.445E-01,
1799,3.402E-01,
1843,3.359E-01,
1887,3.316E-01,
1931,3.274E-01,
1975,3.231E-01,
2019,3.188E-01,
2063,3.145E-01,
2107,3.102E-01,
2151,3.059E-01,
2195,3.016E-01,
2239,2.973E-01,
2283,2.930E-01,
2327,2.887E-01,
2371,2.844E-01,
2415,2.801E-01,
2459,2.758E-01,
2503,2.716E-01,
2547,2.673E-01,
2591,2.630E-01,
2635,2.587E-01,
1360,3.835E-01,
1361,3.824E-01,
1362,3.776E-01,
1363,3.692E-01,
1364,3.313E-01,
1404,3.793E-01,
1405,3.781E-01,
1406,3.734E-01,
1407,3.651E-01,
1408,3.276E-01,
1448,3.750E-01,
1449,3.738E-01,
1450,3.692E-01,
1451,3.610E-01,
1452,3.239E-01,
1492,3.707E-01,
1493,3.696E-01,
1494,3.649E-01,
1495,3.568E-01,
1496,3.202E-01,
1536,3.664E-01,
1537,3.653E-01,
1538,3.607E-01,
1539,3.527E-01,
1540,3.164E-01,
1580,3.621E-01,
1581,3.610E-01,
1582,3.565E-01,
1583,3.485E-01,
1584,3.127E-01,
1624,3.577E-01,
1625,3.567E-01,
1626,3.522E-01,
1627,3.444E-01,
1628,3.090E-01,
1668,3.534E-01,
1669,3.524E-01,
1670,3.480E-01,
1671,3.402E-01,
1672,3.053E-01,
1712,3.491E-01,
1713,3.481E-01,
1714,3.437E-01,
1715,3.361E-01,
1716,3.015E-01,
1756,3.448E-01,
1757,3.438E-01,
1758,3.395E-01,
1759,3.319E-01,
1760,2.978E-01,
1800,3.405E-01,
1801,3.395E-01,
1802,3.352E-01,
1803,3.278E-01,
1804,2.941E-01,
1844,3.362E-01,
1845,3.352E-01,
1846,3.310E-01,
1847,3.236E-01,
1848,2.904E-01,
1888,3.319E-01,
1889,3.309E-01,
1890,3.267E-01,
1891,3.195E-01,
1892,2.866E-01,
1932,3.276E-01,
1933,3.266E-01,
1934,3.225E-01,
1935,3.153E-01,
1936,2.829E-01,
1976,3.233E-01,
1977,3.223E-01,
1978,3.182E-01,
1979,3.112E-01,
1980,2.792E-01,
2020,3.190E-01,
2021,3.180E-01,
2022,3.140E-01,
2023,3.070E-01,
2024,2.755E-01,
2064,3.147E-01,
2065,3.137E-01,
2066,3.097E-01,
2067,3.029E-01,
2068,2.717E-01,
2108,3.104E-01,
2109,3.094E-01,
2110,3.055E-01,
2111,2.987E-01,
2112,2.680E-01,
2152,3.061E-01,
2153,3.051E-01,
2154,3.012E-01,
2155,2.945E-01,
2156,2.643E-01,
2196,3.018E-01,
2197,3.008E-01,
2198,2.970E-01,
2199,2.904E-01,
2200,2.605E-01,
2240,2.975E-01,
2241,2.965E-01,
2242,2.928E-01,
2243,2.862E-01,
2244,2.568E-01,
2284,2.931E-01,
2285,2.922E-01,
2286,2.885E-01,
2287,2.821E-01,
2288,2.531E-01,
2328,2.888E-01,
2329,2.879E-01,
2330,2.843E-01,
2331,2.779E-01,
2332,2.494E-01,
2372,2.845E-01,
2373,2.836E-01,
2374,2.800E-01,
2375,2.738E-01,
2376,2.456E-01,
2416,2.802E-01,
2417,2.793E-01,
2418,2.758E-01,
2419,2.696E-01,
2420,2.419E-01,
2460,2.759E-01,
2461,2.750E-01,
2462,2.715E-01,
2463,2.655E-01,
2464,2.382E-01,
2504,2.716E-01,
2505,2.707E-01,
2506,2.673E-01,
2507,2.613E-01,
2508,2.344E-01,
2548,2.673E-01,
2549,2.664E-01,
2550,2.630E-01,
2551,2.571E-01,
2552,2.307E-01,
2592,2.630E-01,
2593,2.621E-01,
2594,2.588E-01,
2595,2.530E-01,
2596,2.270E-01,
2636,2.587E-01,
2637,2.578E-01,
2638,2.545E-01,
2639,2.488E-01,
2640,2.233E-01,
2642,1.318E-01,
2643,8.784E-02,
2644,8.116E-02,
2686,1.295E-01,
2687,8.635E-02,
2688,8.139E-02,
2730,1.273E-01,
2731,8.486E-02,
2732,8.163E-02,
2774,1.250E-01,
2775,8.336E-02,
2776,8.186E-02,
2818,1.228E-01,
2819,8.187E-02,
2820,8.210E-02,
2862,1.206E-01,
2863,8.038E-02,
2864,8.233E-02,
2906,1.183E-01,
2907,7.889E-02,
2908,8.257E-02,
2950,1.161E-01,
2951,7.744E-02,
2952,8.281E-02,
2994,1.139E-01,
2995,7.706E-02,
2996,8.305E-02,
3038,1.116E-01,
3039,7.669E-02,
3040,8.329E-02,
3082,1.094E-01,
3083,7.632E-02,
3084,8.353E-02,
3126,1.071E-01,
3127,7.594E-02,
3128,8.377E-02,
3170,1.049E-01,
3171,7.557E-02,
3172,8.401E-02,
3214,1.027E-01,
3215,7.519E-02,
3216,8.425E-02,
3258,1.004E-01,
3259,7.482E-02,
3260,8.450E-02,
3302,9.819E-02,
3303,7.444E-02,
3304,8.474E-02,
3346,9.595E-02,
3347,7.407E-02,
3348,8.499E-02,
3390,9.372E-02,
3391,7.370E-02,
3392,8.524E-02,
3434,9.148E-02,
3435,7.332E-02,
3436,8.549E-02,
3478,8.924E-02,
3479,7.295E-02,
3480,8.574E-02,
3522,8.701E-02,
3523,7.257E-02,
3524,8.599E-02,
3566,8.477E-02,
3567,7.220E-02,
3568,8.624E-02,
3610,8.253E-02,
3611,7.183E-02,
3612,8.649E-02,
3654,8.030E-02,
3655,7.146E-02,
3656,8.674E-02,
3698,7.806E-02,
3699,7.108E-02,
3700,8.699E-02,
3742,7.583E-02,
3743,7.071E-02,
3744,8.725E-02,
3786,7.360E-02,
3787,7.117E-02,
3788,8.750E-02,
3830,7.137E-02,
3831,7.165E-02,
3832,8.774E-02,
3874,6.914E-02,
3875,7.213E-02,
3876,8.799E-02,
3918,6.859E-02,
3919,7.261E-02,
3920,8.823E-02,
3962,6.804E-02,
3963,7.308E-02,
3964,8.846E-02,
4006,6.749E-02,
4007,7.354E-02,
4008,8.869E-02,
4050,6.694E-02,
4051,7.399E-02,
4052,8.892E-02,
4094,6.639E-02,
4095,7.442E-02,
4096,8.913E-02,
4138,6.584E-02,
4139,7.484E-02,
4140,8.932E-02,
4182,6.529E-02,
4183,7.524E-02,
4184,8.950E-02,
4226,6.473E-02,
4227,7.561E-02,
4228,8.966E-02,
4270,6.416E-02,
4271,7.595E-02,
4272,8.980E-02,
4314,6.358E-02,
4315,7.625E-02,
4316,8.991E-02,
4358,6.299E-02,
4359,7.650E-02,
4360,8.997E-02,
4402,6.238E-02,
4403,7.671E-02,
4404,9.000E-02,
4446,6.175E-02,
4447,7.685E-02,
4448,8.996E-02,
4490,6.110E-02,
4491,7.692E-02,
4492,8.986E-02,
4534,6.042E-02,
4535,7.691E-02,
4536,8.968E-02,
4578,5.971E-02,
4579,7.682E-02,
4580,8.940E-02,
4622,5.898E-02,
4623,7.663E-02,
4624,8.900E-02,
4666,5.899E-02,
4667,7.635E-02,
4668,8.848E-02,
4710,5.907E-02,
4711,7.598E-02,
4712,8.781E-02,
4754,5.911E-02,
4755,7.550E-02,
4756,8.698E-02,
4798,5.913E-02,
4799,7.493E-02,
4800,8.598E-02,
4842,5.913E-02,
4843,7.425E-02,
4844,8.481E-02,
4886,5.912E-02,
4887,7.346E-02,
4888,8.346E-02,
4930,5.909E-02,
4931,7.254E-02,
4932,8.188E-02,
4974,5.904E-02,
4975,7.142E-02,
4976,8.000E-02,
5018,5.896E-02,
5019,6.997E-02,
5020,7.761E-02,
5062,5.876E-02,
5063,6.804E-02,
5064,7.447E-02,
5106,5.824E-02,
5107,6.536E-02,
5108,7.043E-02,
5150,5.689E-02,
5151,6.160E-02,
5152,6.582E-02,
5194,5.460E-02,
5195,6.002E-02,
5196,6.324E-02,
5238,5.611E-02,
5239,6.218E-02,
5240,6.557E-02,
2678,2.544E-01,
2722,2.501E-01,
2766,2.459E-01,
2810,2.416E-01,
2854,2.373E-01,
2898,2.330E-01,
2942,2.287E-01,
2986,2.245E-01,
3030,2.202E-01,
3074,2.159E-01,
3118,2.116E-01,
3162,2.074E-01,
3206,2.031E-01,
3250,1.988E-01,
3294,1.945E-01,
3338,1.903E-01,
3382,1.860E-01,
3426,1.817E-01,
3470,1.774E-01,
3514,1.732E-01,
3558,1.689E-01,
3602,1.646E-01,
3646,1.603E-01,
3690,1.561E-01,
3734,1.518E-01,
3778,1.475E-01,
3822,1.432E-01,
3866,1.390E-01,
3910,1.347E-01,
3954,1.304E-01,
3998,1.261E-01,
4042,1.218E-01,
4086,1.175E-01,
4130,1.133E-01,
4174,1.090E-01,
4218,1.047E-01,
4262,1.004E-01,
4306,9.609E-02,
4350,9.179E-02,
4394,8.749E-02,
4438,8.318E-02,
4482,7.887E-02,
4526,7.455E-02,
4570,7.023E-02,
4614,6.590E-02,
4658,6.157E-02,
4702,5.723E-02,
4746,5.288E-02,
4790,4.854E-02,
4834,4.420E-02,
4878,3.988E-02,
4922,3.560E-02,
4966,3.233E-02,
5010,3.094E-02,
5054,2.938E-02,
5098,2.765E-02,
5142,2.604E-02,
5186,2.903E-02,
5230,3.026E-02,
5274,2.698E-02,
2641,1.757E-01,
2685,1.727E-01,
2729,1.697E-01,
2773,1.667E-01,
2817,1.637E-01,
2861,1.608E-01,
2905,1.578E-01,
2949,1.548E-01,
2993,1.518E-01,
3037,1.488E-01,
3081,1.458E-01,
3125,1.429E-01,
3169,1.399E-01,
3213,1.369E-01,
3257,1.339E-01,
3301,1.309E-01,
3345,1.279E-01,
3389,1.249E-01,
3433,1.220E-01,
3477,1.190E-01,
3521,1.160E-01,
3565,1.130E-01,
3609,1.100E-01,
3653,1.070E-01,
3697,1.041E-01,
3741,1.011E-01,
3785,9.808E-02,
3829,9.510E-02,
3873,9.212E-02,
3917,8.913E-02,
2679,2.544E-01,
2723,2.501E-01,
2767,2.458E-01,
2811,2.415E-01,
2855,2.372E-01,
2899,2.329E-01,
2943,2.286E-01,
2987,2.244E-01,
3031,2.201E-01,
3075,2.158E-01,
3119,2.115E-01,
3163,2.072E-01,
3207,2.029E-01,
3251,1.986E-01,
3295,1.943E-01,
3339,1.900E-01,
3383,1.857E-01,
3427,1.814E-01,
3471,1.771E-01,
3515,1.729E-01,
3559,1.686E-01,
3603,1.643E-01,
3647,1.600E-01,
3691,1.557E-01,
3735,1.514E-01,
3779,1.471E-01,
3823,1.428E-01,
3867,1.385E-01,
3911,1.342E-01,
3955,1.299E-01,
2680,2.544E-01,
2681,2.535E-01,
2682,2.503E-01,
2683,2.447E-01,
2684,2.195E-01,
2724,2.501E-01,
2725,2.492E-01,
2726,2.460E-01,
2727,2.405E-01,
2728,2.158E-01,
2768,2.458E-01,
2769,2.449E-01,
2770,2.418E-01,
2771,2.364E-01,
2772,2.121E-01,
2812,2.415E-01,
2813,2.406E-01,
2814,2.375E-01,
2815,2.322E-01,
2816,2.083E-01,
2856,2.372E-01,
2857,2.363E-01,
2858,2.333E-01,
2859,2.281E-01,
2860,2.046E-01,
2900,2.329E-01,
2901,2.320E-01,
2902,2.290E-01,
2903,2.239E-01,
2904,2.009E-01,
2944,2.285E-01,
2945,2.277E-01,
2946,2.248E-01,
2947,2.197E-01,
2948,1.972E-01,
2988,2.242E-01,
2989,2.234E-01,
2990,2.205E-01,
2991,2.156E-01,
2992,1.934E-01,
3032,2.199E-01,
3033,2.191E-01,
3034,2.163E-01,
3035,2.114E-01,
3036,1.897E-01,
3076,2.156E-01,
3077,2.148E-01,
3078,2.120E-01,
3079,2.073E-01,
3080,1.860E-01,
3120,2.113E-01,
3121,2.105E-01,
3122,2.078E-01,
3123,2.031E-01,
3124,1.822E-01,
3164,2.070E-01,
3165,2.062E-01,
3166,2.035E-01,
3167,1.990E-01,
3168,1.785E-01,
3208,2.027E-01,
3209,2.019E-01,
3210,1.993E-01,
3211,1.948E-01,
3212,1.748E-01,
3252,1.984E-01,
3253,1.976E-01,
3254,1.950E-01,
3255,1.907E-01,
3256,1.711E-01,
3296,1.941E-01,
3297,1.933E-01,
3298,1.908E-01,
3299,1.865E-01,
3300,1.673E-01,
3340,1.898E-01,
3341,1.890E-01,
3342,1.865E-01,
3343,1.823E-01,
3344,1.636E-01,
3384,1.855E-01,
3385,1.847E-01,
3386,1.823E-01,
3387,1.782E-01,
3388,1.599E-01,
3428,1.812E-01,
3429,1.804E-01,
3430,1.780E-01,
3431,1.740E-01,
3432,1.561E-01,
3472,1.769E-01,
3473,1.761E-01,
3474,1.738E-01,
3475,1.699E-01,
3476,1.524E-01,
3516,1.725E-01,
3517,1.717E-01,
3518,1.695E-01,
3519,1.657E-01,
3520,1.487E-01,
3560,1.682E-01,
3561,1.674E-01,
3562,1.653E-01,
3563,1.616E-01,
3564,1.449E-01,
3604,1.639E-01,
3605,1.631E-01,
3606,1.610E-01,
3607,1.574E-01,
3608,1.412E-01,
3648,1.596E-01,
3649,1.588E-01,
3650,1.568E-01,
3651,1.532E-01,
3652,1.375E-01,
3692,1.553E-01,
3693,1.545E-01,
3694,1.525E-01,
3695,1.491E-01,
3696,1.337E-01,
3736,1.510E-01,
3737,1.502E-01,
3738,1.482E-01,
3739,1.449E-01,
3740,1.300E-01,
3780,1.467E-01,
3781,1.459E-01,
3782,1.440E-01,
3783,1.407E-01,
3784,1.263E-01,
3824,1.423E-01,
3825,1.416E-01,
3826,1.397E-01,
3827,1.366E-01,
3828,1.225E-01,
3868,1.380E-01,
3869,1.373E-01,
3870,1.355E-01,
3871,1.324E-01,
3872,1.188E-01,
3912,1.337E-01,
3913,1.330E-01,
3914,1.312E-01,
3915,1.282E-01,
3916,1.151E-01,
3956,1.294E-01,
3957,1.286E-01,
3958,1.269E-01,
3959,1.241E-01,
3960,1.113E-01,
3961,8.615E-02,
4005,8.316E-02,
4049,8.018E-02,
4093,7.720E-02,
4137,7.422E-02,
4181,7.123E-02,
4225,6.825E-02,
4269,6.528E-02,
4313,6.230E-02,
4357,5.933E-02,
4401,5.707E-02,
4445,5.624E-02,
4489,5.538E-02,
4533,5.450E-02,
4577,5.359E-02,
4621,5.267E-02,
4665,5.172E-02,
4709,5.077E-02,
4753,4.982E-02,
4797,4.888E-02,
4841,4.798E-02,
4885,4.714E-02,
4929,4.641E-02,
4973,4.582E-02,
5017,4.544E-02,
5061,4.531E-02,
5105,4.758E-02,
5149,4.990E-02,
5193,5.094E-02,
5237,4.678E-02,
3999,1.256E-01,
4043,1.213E-01,
4087,1.170E-01,
4131,1.127E-01,
4175,1.083E-01,
4219,1.040E-01,
4263,9.971E-02,
4307,9.539E-02,
4351,9.107E-02,
4395,8.675E-02,
4439,8.243E-02,
4483,7.811E-02,
4527,7.379E-02,
4571,6.946E-02,
4615,6.514E-02,
4659,6.081E-02,
4703,5.649E-02,
4747,5.216E-02,
4791,4.784E-02,
4835,4.351E-02,
4879,3.920E-02,
4923,3.491E-02,
4967,3.065E-02,
5011,2.645E-02,
5055,2.236E-02,
5099,1.843E-02,
5143,1.490E-02,
5187,1.949E-02,
5231,2.308E-02,
5275,1.795E-02,
4000,1.251E-01,
4001,1.243E-01,
4002,1.227E-01,
4003,1.199E-01,
4004,1.076E-01,
4044,1.207E-01,
4045,1.200E-01,
4046,1.184E-01,
4047,1.157E-01,
4048,1.038E-01,
4088,1.164E-01,
4089,1.157E-01,
4090,1.141E-01,
4091,1.115E-01,
4092,1.001E-01,
4132,1.121E-01,
4133,1.113E-01,
4134,1.098E-01,
4135,1.073E-01,
4136,9.634E-02,
4176,1.077E-01,
4177,1.070E-01,
4178,1.056E-01,
4179,1.031E-01,
4180,9.259E-02,
4220,1.034E-01,
4221,1.027E-01,
4222,1.013E-01,
4223,9.896E-02,
4224,8.885E-02,
4264,9.907E-02,
4265,9.835E-02,
4266,9.700E-02,
4267,9.478E-02,
4268,8.510E-02,
4308,9.474E-02,
4309,9.402E-02,
4310,9.272E-02,
4311,9.059E-02,
4312,8.135E-02,
4352,9.040E-02,
4353,8.970E-02,
4354,8.845E-02,
4355,8.641E-02,
4356,7.761E-02,
4396,8.607E-02,
4397,8.538E-02,
4398,8.418E-02,
4399,8.223E-02,
4400,7.387E-02,
4440,8.174E-02,
4441,8.106E-02,
4442,7.991E-02,
4443,7.806E-02,
4444,7.014E-02,
4484,7.742E-02,
4485,7.675E-02,
4486,7.566E-02,
4487,7.390E-02,
4488,6.641E-02,
4528,7.310E-02,
4529,7.245E-02,
4530,7.168E-02,
4531,7.029E-02,
4532,6.269E-02,
4572,6.879E-02,
4573,6.816E-02,
4574,6.842E-02,
4575,6.709E-02,
4576,5.898E-02,
4616,6.448E-02,
4617,6.474E-02,
4618,6.509E-02,
4619,6.383E-02,
4620,5.527E-02,
4660,6.018E-02,
4661,6.127E-02,
4662,6.167E-02,
4663,6.049E-02,
4664,5.158E-02,
4704,5.589E-02,
4705,5.770E-02,
4706,5.815E-02,
4707,5.707E-02,
4708,4.790E-02,
4748,5.160E-02,
4749,5.401E-02,
4750,5.452E-02,
4751,5.355E-02,
4752,4.424E-02,
4792,4.731E-02,
4793,5.019E-02,
4794,5.078E-02,
4795,4.993E-02,
4796,4.071E-02,
4836,4.301E-02,
4837,4.625E-02,
4838,4.691E-02,
4839,4.619E-02,
4840,3.962E-02,
4880,3.870E-02,
4881,4.218E-02,
4882,4.290E-02,
4883,4.233E-02,
4884,3.857E-02,
4924,3.451E-02,
4925,3.800E-02,
4926,3.875E-02,
4927,3.831E-02,
4928,3.758E-02,
4968,3.058E-02,
4969,3.375E-02,
4970,3.443E-02,
4971,3.407E-02,
4972,3.665E-02,
5012,2.675E-02,
5013,2.942E-02,
5014,2.993E-02,
5015,2.955E-02,
5016,3.581E-02,
5056,2.308E-02,
5057,2.506E-02,
5058,2.514E-02,
5059,2.725E-02,
5060,3.506E-02,
5100,1.959E-02,
5101,2.049E-02,
5102,2.253E-02,
5103,2.573E-02,
5104,3.440E-02,
5144,1.604E-02,
5145,1.694E-02,
5146,2.089E-02,
5147,2.405E-02,
5148,3.386E-02,
5188,1.138E-02,
5189,1.293E-02,
5190,1.703E-02,
5191,2.192E-02,
5192,3.415E-02,
5232,8.362E-03,
5233,1.393E-02,
5234,1.888E-02,
5235,2.189E-02,
5236,3.944E-02,
5276,1.432E-02,
5277,2.518E-02,
5278,3.400E-02,
5279,3.864E-02,
5280,4.460E-02,
5281,N/A,

